,Variant,Conversion_Rate
0,A,0.1191262744307825
1,A,0.14943752905215582
2,A,0.26028416941983357
3,A,0.2869421622916245
4,A,0.14477978700153477
5,A,0.11203986779587337
6,A,0.29664439269818843
7,A,0.22636583711643624
8,A,0.2583835692142008
9,A,0.2290172320092934
10,A,0.2948576061067755
11,A,0.23487523739417937
12,A,0.1529866198305336
13,A,0.210041719421818
14,A,0.22400828545006807
15,A,0.24409536393929773
16,A,0.15707224030217054
17,A,0.21284769409872933
18,A,0.14202816283560465
19,A,0.2297997922356642
20,A,0.2917768435884181
21,A,0.11151164576343175
22,A,0.19901474746230308
23,A,0.15658736664993228
24,A,0.1083213361904055
25,A,0.10169516273340831
26,A,0.1858278845674357
27,A,0.11205393948968112
28,A,0.1155996432053905
29,A,0.1148491589352608
30,A,0.12306998800925545
31,A,0.20813716903479493
32,A,0.18152520026752594
33,A,0.15153300252721216
34,A,0.156291226747535
35,A,0.2290644552613517
36,A,0.26444055920729737
37,A,0.21181145879945104
38,A,0.13410640368034904
39,A,0.12219352042788723
40,A,0.2231287112491392
41,A,0.12181946849888466
42,A,0.2914144347461476
43,A,0.29214227479314514
44,A,0.2582356336762407
45,A,0.16853605356590887
46,A,0.11489850369091388
47,A,0.22142592075588596
48,A,0.27374922523212813
49,A,0.2126661644067148
50,A,0.21919207091510184
51,A,0.2322100679889421
52,A,0.14086904524581753
53,A,0.27016539394019756
54,A,0.15671793375815352
55,A,0.19041433831695398
56,A,0.1986267523687481
57,A,0.14928925861741657
58,A,0.1558554222620867
59,A,0.18771633559476317
60,A,0.21992128992055582
61,A,0.1228212524080044
62,A,0.1150179508712709
63,A,0.27831548759946506
64,A,0.11165867618712114
65,A,0.27555334684651345
66,A,0.17335273998411665
67,A,0.19401178254530071
68,A,0.10744568116977354
69,A,0.14564796672893243
70,A,0.1492190128133301
71,A,0.28686091596575797
72,A,0.2547619753445777
73,A,0.22722613673493228
74,A,0.2353051876235745
75,A,0.273605144516422
76,A,0.21731076888533438
77,A,0.1669943862920966
78,A,0.14124955252889743
79,A,0.1631409517340338
80,A,0.13414689371919203
81,A,0.2612178075411614
82,A,0.2163725247853808
83,A,0.29365554586493803
84,A,0.18517733875770298
85,A,0.16594313473687528
86,A,0.16907010172907783
87,A,0.19204462679213613
88,A,0.29296984553838445
89,A,0.25807842052193053
90,A,0.2234738269031531
91,A,0.14972617563693041
92,A,0.10768311752992882
93,A,0.12000851834664704
94,A,0.23604812417333715
95,A,0.20632623171118103
96,A,0.13045015760576986
97,A,0.13801115546677906
98,A,0.29979977935115054
99,A,0.12321486065618797
100,A,0.15396554899444415
101,A,0.1777068873378593
102,A,0.2763692074844882
103,A,0.27063225132536456
104,A,0.13635658880688253
105,A,0.1229616877380408
106,A,0.26821005113297924
107,A,0.1541535931701564
108,A,0.10425347505287691
109,A,0.19721395759852084
110,A,0.238776474261218
111,A,0.14159719625286532
112,A,0.21174748865537796
113,A,0.13724889465036433
114,A,0.24778531632539427
115,A,0.1940168643360219
116,A,0.2775841777167537
117,A,0.10888609736123805
118,A,0.2614225644480014
119,A,0.117978012593624
120,A,0.24615288234509614
121,A,0.2867042335760922
122,A,0.18059380464208458
123,A,0.13083681509436626
124,A,0.13598975065843952
125,A,0.16296512753371284
126,A,0.14596975420123665
127,A,0.25701528585852734
128,A,0.1714706916548455
129,A,0.29092516440748095
130,A,0.2040264020730328
131,A,0.274079578322456
132,A,0.10084024305347493
133,A,0.1162645430253999
134,A,0.24217655309162744
135,A,0.20880767445583004
136,A,0.1764531541296674
137,A,0.12323775459200395
138,A,0.1902432966395044
139,A,0.2397493324702052
140,A,0.21243553826634815
141,A,0.27173278138311124
142,A,0.12673630481299786
143,A,0.15547035036198004
144,A,0.1238127167790437
145,A,0.19479214956743568
146,A,0.22733928888029056
147,A,0.19423494694353236
148,A,0.26493860561940996
149,A,0.2037527500033841
150,A,0.1873719966658226
151,A,0.12597387736193616
152,A,0.27068168421190025
153,A,0.23742160448494634
154,A,0.12517213324212534
155,A,0.1977211738463041
156,A,0.13055628401607672
157,A,0.25884626312819076
158,A,0.24032820633006827
159,A,0.17897487467714637
160,A,0.10819792414152217
161,A,0.1501952007903519
162,A,0.14852125535759217
163,A,0.2889257562766664
164,A,0.149292786638579
165,A,0.10583730219206747
166,A,0.23807522328951547
167,A,0.20310568863368758
168,A,0.2510623484350327
169,A,0.25106439217074994
170,A,0.15059344692484367
171,A,0.12538895425242033
172,A,0.17047354371390125
173,A,0.20275485528217904
174,A,0.10953033527150642
175,A,0.18393081299588998
176,A,0.28253237948587423
177,A,0.19285630907126555
178,A,0.11453668025818019
179,A,0.11305203504227444
180,A,0.19769250446863626
181,A,0.20699014060927146
182,A,0.19960927143308627
183,A,0.11091243218237357
184,A,0.23523746091717151
185,A,0.2915659705469494
186,A,0.2406368293687386
187,A,0.1347337178841511
188,A,0.10683505833517082
189,A,0.13407312498836207
190,A,0.2655925919041138
191,A,0.2984031891276822
192,A,0.2843817884043533
193,A,0.2644578842092976
194,A,0.20295692150864192
195,A,0.18000219555409597
196,A,0.22884702363700962
197,A,0.1844289964254527
198,A,0.15932543064208077
199,A,0.19790689545936435
200,A,0.2671402940484052
201,A,0.2425345491831748
202,A,0.258099404181391
203,A,0.2957573855621566
204,A,0.1282078457414079
205,A,0.11886187192491714
206,A,0.24337941764831186
207,A,0.18282018009489379
208,A,0.2825365502334596
209,A,0.16473937980374695
210,A,0.13596467172508533
211,A,0.20133864263489598
212,A,0.12810618562603765
213,A,0.15705114632787037
214,A,0.2737737203401045
215,A,0.10267754459013168
216,A,0.2120664984374544
217,A,0.26369381221451427
218,A,0.1726092231543604
219,A,0.2935109964556083
220,A,0.2421790318402453
221,A,0.12383043484778913
222,A,0.19533758732605755
223,A,0.14391552438708538
224,A,0.1075431638788844
225,A,0.2775960763421853
226,A,0.28689570695392336
227,A,0.11422940853557845
228,A,0.15584678153779827
229,A,0.12491148996570361
230,A,0.19650120957562023
231,A,0.10605291465228073
232,A,0.2587238049572661
233,A,0.10940862119508042
234,A,0.10706971260743177
235,A,0.2539980615072087
236,A,0.14274202021698096
237,A,0.1628429010834605
238,A,0.2975195070585538
239,A,0.23024296654644275
240,A,0.14405624339751474
241,A,0.13477664224819944
242,A,0.11956552094878964
243,A,0.19604382087925154
244,A,0.2515965278102219
245,A,0.12587703386910948
246,A,0.14447635565921496
247,A,0.16506844651529368
248,A,0.1506659247122855
249,A,0.28627725708741997
250,A,0.15149215031129845
251,A,0.23026025887329096
252,A,0.10144634447767914
253,A,0.2624087821533381
254,A,0.13549985907989615
255,A,0.19043375168711935
256,A,0.20878449939574595
257,A,0.13468265323994955
258,A,0.2302783320341001
259,A,0.20888874517691797
260,A,0.20941236630632565
261,A,0.12086245741303035
262,A,0.11812400660498108
263,A,0.2347296605470334
264,A,0.23133790096911266
265,A,0.24838831419470278
266,A,0.12608310608800657
267,A,0.1917353294183014
268,A,0.2185499681103752
269,A,0.1751200750586503
270,A,0.24291689833202385
271,A,0.152430297127735
272,A,0.19827738388241362
273,A,0.11986546845253832
274,A,0.19450243316336363
275,A,0.16355887184509207
276,A,0.21061353141788347
277,A,0.15379406326363101
278,A,0.2404059494047635
279,A,0.2522296414912766
280,A,0.224293022918309
281,A,0.14667505923427954
282,A,0.2587669500030595
283,A,0.25449278859478464
284,A,0.17472877307859325
285,A,0.23876366324968934
286,A,0.21248079221098878
287,A,0.26076913156175174
288,A,0.10190136667837571
289,A,0.10305732439284031
290,A,0.10828870313746303
291,A,0.17192439151887026
292,A,0.19837882619491887
293,A,0.29979751351251305
294,A,0.21341476420150748
295,A,0.2442275111956476
296,A,0.1958314079185935
297,A,0.19312686445101446
298,A,0.18992706654485225
299,A,0.24456685743796838
300,A,0.2050681550282628
301,A,0.2799586886279313
302,A,0.11745188524388087
303,A,0.14027995533073193
304,A,0.19391310455106275
305,A,0.1631084297842464
306,A,0.2506096433138111
307,A,0.25444447027927064
308,A,0.15795147626411604
309,A,0.2723724682480626
310,A,0.18371815197379102
311,A,0.1153351004921803
312,A,0.12918525385381696
313,A,0.22632949521007084
314,A,0.24630887997768922
315,A,0.2502337078567354
316,A,0.217240104760628
317,A,0.10104199983440312
318,A,0.26129957938973103
319,A,0.18800363190725733
320,A,0.24379255702602778
321,A,0.1068305787326353
322,A,0.20794388475257336
323,A,0.14178973207637596
324,A,0.11501192945604798
325,A,0.23582336385848318
326,A,0.16090509986057291
327,A,0.23867341539334452
328,A,0.19939861982308377
329,A,0.18091977574561144
330,A,0.24321489249376907
331,A,0.25436243006204085
332,A,0.21178999665960224
333,A,0.262584196667451
334,A,0.2624541392803057
335,A,0.23071681026368362
336,A,0.27481382810305227
337,A,0.1492039097437502
338,A,0.14207186723663892
339,A,0.10370963140299297
340,A,0.11008082088990429
341,A,0.20157464560451294
342,A,0.2501495507658647
343,A,0.10720915197447907
344,A,0.1234055639935877
345,A,0.27055227592964703
346,A,0.1345783252979536
347,A,0.2035502295188925
348,A,0.14812243723584867
349,A,0.14271109843899477
350,A,0.2650172765341639
351,A,0.22763046379875818
352,A,0.11717503297394948
353,A,0.1836105335948256
354,A,0.26368276541723934
355,A,0.21380649088100145
356,A,0.21259506654907884
357,A,0.27155524702163014
358,A,0.1379837247229953
359,A,0.12480161585224081
360,A,0.12299466417255833
361,A,0.17361992284168173
362,A,0.16782592899603893
363,A,0.10939317117215377
364,A,0.1350522827823841
365,A,0.2889984262496258
366,A,0.23147166821540102
367,A,0.20949003052927345
368,A,0.29858031904462656
369,A,0.17717085594978613
370,A,0.28996047327275004
371,A,0.29808555436399414
372,A,0.27767639350764994
373,A,0.2778910327293669
374,A,0.1326170376936277
375,A,0.17289604029234107
376,A,0.159398262581853
377,A,0.10043344044832314
378,A,0.14576996568413403
379,A,0.26890439409206635
380,A,0.11342890548096984
381,A,0.1036423600412534
382,A,0.11435881880192558
383,A,0.23165211658992604
384,A,0.25317146108530786
385,A,0.2006266934535491
386,A,0.16371415252183313
387,A,0.25340642372447963
388,A,0.2589162212321933
389,A,0.2740988582596564
390,A,0.25447132161950997
391,A,0.21530468658486068
392,A,0.29595636561429006
393,A,0.21846011008688943
394,A,0.17652802722920424
395,A,0.26870890716976226
396,A,0.18600308738501056
397,A,0.19234251526055302
398,A,0.19723214640987363
399,A,0.16279430972721426
400,A,0.29404356732042836
401,A,0.18644262854929777
402,A,0.286928347201155
403,A,0.25464529283455667
404,A,0.2893288500564486
405,A,0.24066404828620352
406,A,0.13355847453631658
407,A,0.28744083165431245
408,A,0.21539743223075225
409,A,0.20144673677906477
410,A,0.16705336295468468
411,A,0.25281242663530457
412,A,0.2487845757945686
413,A,0.24692443908219733
414,A,0.20193436260027553
415,A,0.24211487072946578
416,A,0.19805667216749062
417,A,0.14902777849640952
418,A,0.2947661170825825
419,A,0.16469856724929904
420,A,0.22052388831457642
421,A,0.21660251797260252
422,A,0.12429806567775947
423,A,0.13654917724281326
424,A,0.2947673364689364
425,A,0.2849094380766935
426,A,0.16541593311726693
427,A,0.16248588891782886
428,A,0.16221909650238955
429,A,0.19570203745392456
430,A,0.17966042522969383
431,A,0.2428545354725162
432,A,0.25885907177657785
433,A,0.10876423180193234
434,A,0.27972259632053054
435,A,0.13406675390596112
436,A,0.176093500175129
437,A,0.1293212142929795
438,A,0.16876712904875038
439,A,0.1233840704960685
440,A,0.17699402632757333
441,A,0.2312413756773253
442,A,0.1699462997587991
443,A,0.12139570153304279
444,A,0.14658511075645453
445,A,0.2042099463872451
446,A,0.10385113657005246
447,A,0.2797487903447212
448,A,0.2779462843723109
449,A,0.14684452292046288
450,A,0.14926583374378444
451,A,0.2975360559098372
452,A,0.17362029186541472
453,A,0.14755487503481085
454,A,0.10156750663320513
455,A,0.21003072167969494
456,A,0.2773251644579991
457,A,0.24181924346018283
458,A,0.15149438985086391
459,A,0.2863444984711262
460,A,0.1735915327319544
461,A,0.2163131671698157
462,A,0.10349855264997077
463,A,0.21213419139139877
464,A,0.1469920544954196
465,A,0.2213153322475215
466,A,0.2751972808127116
467,A,0.1987163261561889
468,A,0.20880909519479102
469,A,0.22156224148257003
470,A,0.28522059241767095
471,A,0.16474194650933974
472,A,0.12017259440318029
473,A,0.19589542587872688
474,A,0.278549526850542
475,A,0.22497396961456628
476,A,0.29882954543404505
477,A,0.2680613592419726
478,A,0.13210972247811376
479,A,0.14495999384777164
480,A,0.1784356476727132
481,A,0.27258688086828314
482,A,0.15288653223406984
483,A,0.28809368764593235
484,A,0.2742168022655953
485,A,0.13108737940365048
486,A,0.11163229999414669
487,A,0.10443109634840159
488,A,0.20557492817688905
489,A,0.2103943615088224
490,A,0.19435342985342924
491,A,0.22786129217415552
492,A,0.20640157936119413
493,A,0.28859341734825344
494,A,0.24982522511073316
495,A,0.261307280778718
496,A,0.1438576887324323
497,A,0.23524961493625532
498,A,0.19791156044260116
499,A,0.19617718966739825
500,A,0.14774055084303025
501,A,0.17629998448363496
502,A,0.16204030997607766
503,A,0.2344000350902153
504,A,0.13592522031566223
505,A,0.2790064212620217
506,A,0.11510971235718018
507,A,0.2788427766325381
508,A,0.12208554708883071
509,A,0.13992163328687673
510,A,0.1986177175346281
511,A,0.1955134561732399
512,A,0.20689324024226038
513,A,0.28503985589319236
514,A,0.24585573534306981
515,A,0.29966582190825475
516,A,0.1971331678845518
517,A,0.1275453370620609
518,A,0.23503387328145336
519,A,0.16635281681062775
520,A,0.18024723338438764
521,A,0.25280177855000197
522,A,0.23391354363777841
523,A,0.2165691881272233
524,A,0.20700031188868118
525,A,0.17085281825079132
526,A,0.18305190502232255
527,A,0.2562092545036602
528,A,0.11605673480013595
529,A,0.2797147110266286
530,A,0.18442089911670712
531,A,0.27175917353484896
532,A,0.19020780693060502
533,A,0.24881394437915635
534,A,0.1743293857427311
535,A,0.20427584412243316
536,A,0.17509485445525072
537,A,0.24571850539812295
538,A,0.27139786285533674
539,A,0.13971396018292345
540,A,0.20160441672117452
541,A,0.17448316490458313
542,A,0.22710899531261647
543,A,0.28544460284374357
544,A,0.2385761941251464
545,A,0.2904926455820098
546,A,0.24650179597579475
547,A,0.12180316461688215
548,A,0.26731502874656254
549,A,0.18569670758474816
550,A,0.23793413234234775
551,A,0.15707673272909178
552,A,0.19209756539382367
553,A,0.2368714018841267
554,A,0.2244344988961915
555,A,0.2282732428859723
556,A,0.19514664038898716
557,A,0.11821393308394892
558,A,0.22668908059844375
559,A,0.13543171508778082
560,A,0.13166647224129563
561,A,0.23515051553085475
562,A,0.15243942650059678
563,A,0.25127032097531277
564,A,0.17967045043369365
565,A,0.2767329993948751
566,A,0.10365687904219756
567,A,0.18470144053920853
568,A,0.16954150725899922
569,A,0.1425124932873916
570,A,0.1970573775896885
571,A,0.14639252581005507
572,A,0.24287320528290252
573,A,0.29284049011924285
574,A,0.2615067462400143
575,A,0.252810027083245
576,A,0.11891657038018044
577,A,0.14705604783131718
578,A,0.25846748958314736
579,A,0.11803804634630832
580,A,0.14557277331184673
581,A,0.17411969644075773
582,A,0.23059027634702814
583,A,0.14223543234289263
584,A,0.15976674473847058
585,A,0.28162099475136226
586,A,0.169378152105847
587,A,0.21287907862340832
588,A,0.21767510604297452
589,A,0.2092294600841927
590,A,0.27897515219734736
591,A,0.1895016636011648
592,A,0.18654268622947606
593,A,0.1174509277603848
594,A,0.18722280627478038
595,A,0.24727011112963052
596,A,0.13730220433062404
597,A,0.19793115051545618
598,A,0.11343902408288216
599,A,0.2363123234838686
600,A,0.12285166603816933
601,A,0.29063147911508236
602,A,0.1982068201707325
603,A,0.2098420691938903
604,A,0.295298733040569
605,A,0.1615110438823176
606,A,0.2447886806947185
607,A,0.24574424483983365
608,A,0.18342998523046428
609,A,0.27355832394572255
610,A,0.26594413057535493
611,A,0.2763368838627033
612,A,0.11573255297745602
613,A,0.2501224750357445
614,A,0.2493567925809655
615,A,0.208071364360465
616,A,0.15746670499853316
617,A,0.10380838970341172
618,A,0.1861034905054787
619,A,0.16310164576334307
620,A,0.2244402065136207
621,A,0.255897810557422
622,A,0.26047312698011427
623,A,0.12678420074198327
624,A,0.2624828146342397
625,A,0.1306976199038942
626,A,0.2341844211706382
627,A,0.2866833274772206
628,A,0.2901076422100599
629,A,0.15462604970944333
630,A,0.1972426867644331
631,A,0.2681230546984273
632,A,0.13314054695743832
633,A,0.1546740857365114
634,A,0.10520891057953395
635,A,0.15308421289482763
636,A,0.14275330905229897
637,A,0.2888203880898078
638,A,0.10748659204423294
639,A,0.27637387573614586
640,A,0.2163333740538067
641,A,0.11190729602254162
642,A,0.20646092090474655
643,A,0.2940019195552578
644,A,0.17506224570733872
645,A,0.22998394290317295
646,A,0.2730672295980294
647,A,0.18431855540676778
648,A,0.23651531610465937
649,A,0.29436743369243773
650,A,0.23389110179233147
651,A,0.20686792520076958
652,A,0.18448962667297358
653,A,0.2854772339899587
654,A,0.28040338743771265
655,A,0.15787043115376187
656,A,0.16826449192611964
657,A,0.27326887341120476
658,A,0.23474169906797604
659,A,0.16378320226680046
660,A,0.25081758630121653
661,A,0.21415393098853375
662,A,0.22611789806868382
663,A,0.2516984967212459
664,A,0.2044401913725726
665,A,0.18463724826680872
666,A,0.19181126010803895
667,A,0.289952584447295
668,A,0.2792659246116864
669,A,0.14031875410632183
670,A,0.1204325806859403
671,A,0.16414357530269424
672,A,0.20847720213053222
673,A,0.16949721169577966
674,A,0.17854933867087447
675,A,0.24943927872196156
676,A,0.2698901694781741
677,A,0.23606980103988945
678,A,0.24128945979783056
679,A,0.24436593914898075
680,A,0.1211953310647612
681,A,0.1374575334411699
682,A,0.23742748057208232
683,A,0.13274440401545415
684,A,0.16660588812715132
685,A,0.12590072956581758
686,A,0.21290994435113297
687,A,0.26099404524287706
688,A,0.19622990966587903
689,A,0.1273307708251375
690,A,0.2565949504506002
691,A,0.29109820898657424
692,A,0.11477459873529983
693,A,0.2325359973096388
694,A,0.1638279454132296
695,A,0.21402159378618144
696,A,0.22997002918177567
697,A,0.2694586913300701
698,A,0.17879954546912652
699,A,0.1321868145290379
700,A,0.21091539336864007
701,A,0.2296741620927302
702,A,0.297150888545231
703,A,0.101500097120691
704,A,0.20112954263872485
705,A,0.22428260887747614
706,A,0.2682643443042143
707,A,0.23300895438868605
708,A,0.22575706714803284
709,A,0.20736185025252035
710,A,0.182933466645297
711,A,0.2556549489207448
712,A,0.2552064969712035
713,A,0.11648362792613631
714,A,0.17032239507961447
715,A,0.17688168992273495
716,A,0.1480840010757804
717,A,0.26808486492862904
718,A,0.10336236685805462
719,A,0.2854569286189432
720,A,0.15028497472358465
721,A,0.10799818674166475
722,A,0.29251676048809244
723,A,0.22404600498800553
724,A,0.2811331167346267
725,A,0.2775993264426275
726,A,0.16662790619943363
727,A,0.17287529430378365
728,A,0.14734769959383698
729,A,0.13138964251768384
730,A,0.14098466347060304
731,A,0.16817653043906608
732,A,0.249724924915983
733,A,0.13288700262517789
734,A,0.2933366977423386
735,A,0.18411841016378333
736,A,0.2020554970802768
737,A,0.1891151624004327
738,A,0.2661284990572136
739,A,0.2646000007723418
740,A,0.12417181132276141
741,A,0.11407165888830482
742,A,0.15732381407383095
743,A,0.15164880881479978
744,A,0.17375203933872835
745,A,0.2548624327812111
746,A,0.21877028586256617
747,A,0.22698401050296263
748,A,0.2224037810064961
749,A,0.2570283972012639
750,A,0.1453358175426514
751,A,0.16053794314180256
752,A,0.16955138376299184
753,A,0.2580402233842478
754,A,0.2556584513058134
755,A,0.24880454729815302
756,A,0.2919954762616208
757,A,0.2573203996763135
758,A,0.2844675440768743
759,A,0.2706733194171177
760,A,0.16102027024296942
761,A,0.16197273456291092
762,A,0.22543898012705035
763,A,0.17819273786612283
764,A,0.25271914781206656
765,A,0.259060005554174
766,A,0.18714697580929615
767,A,0.23502155446909426
768,A,0.16851471354646166
769,A,0.10817953689442822
770,A,0.28693786048745307
771,A,0.19556891849802543
772,A,0.2248523340555668
773,A,0.1444306085414611
774,A,0.2019951296712171
775,A,0.26933045489507645
776,A,0.20380762778037373
777,A,0.2557208705964694
778,A,0.22388173999203384
779,A,0.12140328923399568
780,A,0.24134434396726503
781,A,0.13179283977170814
782,A,0.2453010701875881
783,A,0.12490911746265032
784,A,0.19757756007016875
785,A,0.21640138388721536
786,A,0.22919673302230625
787,A,0.15926207394753003
788,A,0.28328014705063964
789,A,0.29222019519027886
790,A,0.20576534953191267
791,A,0.2512230664755945
792,A,0.26588343250547886
793,A,0.2134192247867493
794,A,0.18561982991463105
795,A,0.15438373396496272
796,A,0.10313875885497814
797,A,0.2528750519950061
798,A,0.15709525907219007
799,A,0.15427567037521941
800,A,0.2908346760560747
801,A,0.20335173824849317
802,A,0.246709080723424
803,A,0.16757701651405207
804,A,0.22626989376106416
805,A,0.10485434089345112
806,A,0.14533096777010984
807,A,0.19003742658594208
808,A,0.2915618395643304
809,A,0.13370590405472532
810,A,0.1949441377512549
811,A,0.2933534691203229
812,A,0.2917551355305048
813,A,0.2380536915894017
814,A,0.29220131795695775
815,A,0.10955423905919331
816,A,0.17992250307421148
817,A,0.28575433506631837
818,A,0.26075931517951484
819,A,0.23078329965133731
820,A,0.25964281932610767
821,A,0.14563833790691022
822,A,0.22459702161306394
823,A,0.20053380910419366
824,A,0.12876800351790996
825,A,0.18360963646076234
826,A,0.1802643773898042
827,A,0.12440720941503487
828,A,0.2479017282980181
829,A,0.21947450074856978
830,A,0.26157220213142596
831,A,0.17181289288159157
832,A,0.11351025685759045
833,A,0.2123212605751228
834,A,0.15664335079323283
835,A,0.22727058469201808
836,A,0.11767451581328277
837,A,0.24241199329659363
838,A,0.16493360017481493
839,A,0.1491754439537233
840,A,0.20069639442799858
841,A,0.10278386900090342
842,A,0.22102934939483743
843,A,0.20728171837051862
844,A,0.17995562594356065
845,A,0.2718852234649911
846,A,0.2935305466775415
847,A,0.2471929212653778
848,A,0.2712248698998244
849,A,0.127768903182945
850,A,0.11467677914534052
851,A,0.24881434512917103
852,A,0.2962535944646112
853,A,0.12241474020894792
854,A,0.1879249985199658
855,A,0.22506748441017285
856,A,0.2890629986166797
857,A,0.15807735575925858
858,A,0.2922534561143847
859,A,0.2862028913818291
860,A,0.16441514846792155
861,A,0.1024376059723206
862,A,0.1774869872737968
863,A,0.2929804477197435
864,A,0.11102277188685945
865,A,0.12726501443659616
866,A,0.24836993217645223
867,A,0.13552301527441032
868,A,0.18585456180423093
869,A,0.11621299301554089
870,A,0.1636796965935558
871,A,0.11753130795988283
872,A,0.12052260836050009
873,A,0.25726792978300095
874,A,0.2780587714361167
875,A,0.27630609692787034
876,A,0.23615587211081382
877,A,0.16684231337369024
878,A,0.23533167702099544
879,A,0.12453981760063332
880,A,0.1817967779733714
881,A,0.1182205722095521
882,A,0.14546680583059338
883,A,0.18994342528307062
884,A,0.22798529294156059
885,A,0.2710502855869245
886,A,0.23894307670904416
887,A,0.22481015833091897
888,A,0.2476221946966155
889,A,0.11066698549989629
890,A,0.2481901330798677
891,A,0.24103663859339933
892,A,0.17287799710853052
893,A,0.24750165892876005
894,A,0.24287564371358397
895,A,0.2561833887307716
896,A,0.25725671036906184
897,A,0.2528543663175564
898,A,0.1374404417807735
899,A,0.24820006017285282
900,A,0.11034798171753446
901,A,0.20454940610664626
902,A,0.1616694745149701
903,A,0.10325602989772785
904,A,0.2724428128259261
905,A,0.21755326758652854
906,A,0.12416365512876766
907,A,0.2693577073312866
908,A,0.1327418778787935
909,A,0.2567491059364312
910,A,0.10307959148521628
911,A,0.13781187659079613
912,A,0.15673088596886367
913,A,0.2536598527499224
914,A,0.12407987493614372
915,A,0.27657700058599255
916,A,0.2223453709199755
917,A,0.12579364683729616
918,A,0.12602526686390375
919,A,0.22546661782162075
920,A,0.276865707418816
921,A,0.23967383495382324
922,A,0.280286863968885
923,A,0.1523140484729649
924,A,0.25913577350149175
925,A,0.2938905769110126
926,A,0.20854263124989356
927,A,0.2834055568820113
928,A,0.2545584018953878
929,A,0.1672283750914762
930,A,0.15159768471709834
931,A,0.2912858709995987
932,A,0.101467957636992
933,A,0.2927289694149302
934,A,0.14408930936440412
935,A,0.17047490702528909
936,A,0.2517814449945891
937,A,0.1039107122702079
938,A,0.19827051688140762
939,A,0.15835154932203435
940,A,0.24187388375546817
941,A,0.1755572621946222
942,A,0.26000194064980897
943,A,0.17397573765312416
944,A,0.104688895757567
945,A,0.25120443191739045
946,A,0.23040843341589498
947,A,0.21088059477957122
948,A,0.126612045892936
949,A,0.16710772929621287
950,A,0.1516941260714983
951,A,0.29859178806104864
952,A,0.1405637013195404
953,A,0.24396034842795358
954,A,0.27461232958529647
955,A,0.10982500421963007
956,A,0.1049480562173068
957,A,0.2554336891241897
958,A,0.17849685619696784
959,A,0.16231419801004252
960,A,0.20746953590619063
961,A,0.11313310765158278
962,A,0.14443972638237118
963,A,0.22513593724342507
964,A,0.1688901048931352
965,A,0.21838068703904676
966,A,0.15552545598957485
967,A,0.24287211816439114
968,A,0.24316804871332054
969,A,0.23827857904407915
970,A,0.2585142719496568
971,A,0.1364178287910482
972,A,0.22094994467296875
973,A,0.1683134865007653
974,A,0.13158668797290166
975,A,0.1547540096465353
976,A,0.13115206837058818
977,A,0.11549947117182047
978,A,0.28051722379065336
979,A,0.18451237028107012
980,A,0.13246586710984257
981,A,0.15874249267710952
982,A,0.2297039569256563
983,A,0.24654048998463932
984,A,0.16892461043824433
985,A,0.23325892866741677
986,A,0.15245118693768153
987,A,0.1932218751621188
988,A,0.27062627993013383
989,A,0.19555375557958637
990,A,0.29059736978060347
991,A,0.2483158563237024
992,A,0.2165809908305626
993,A,0.26602233204956277
994,A,0.161864758838621
995,A,0.16348415998033233
996,A,0.19825289068127971
997,A,0.11428631224359619
998,A,0.2589386594888191
999,A,0.18013854163681953
1000,B,0.18386182763878345
1001,B,0.15664091085733
1002,B,0.20011943229508083
1003,B,0.2548482782861581
1004,B,0.3199697018782448
1005,B,0.15876665627775277
1006,B,0.20662264120887508
1007,B,0.25118247870414856
1008,B,0.22000038298905225
1009,B,0.26847130481235393
1010,B,0.1892285314221573
1011,B,0.2352778777936418
1012,B,0.29437587776878504
1013,B,0.3413854796920098
1014,B,0.3134240605695541
1015,B,0.34436146906328247
1016,B,0.2513860590932434
1017,B,0.21656940910386113
1018,B,0.2626646151348796
1019,B,0.2678877059796229
1020,B,0.19554044869210496
1021,B,0.1907736605579301
1022,B,0.20260462196932055
1023,B,0.2562666702254033
1024,B,0.3125561031005195
1025,B,0.16037067878167147
1026,B,0.3335440706502879
1027,B,0.22364427658069955
1028,B,0.341206971625328
1029,B,0.19133925069895533
1030,B,0.332896178193892
1031,B,0.32641468368477045
1032,B,0.21464814813469435
1033,B,0.29426776267239274
1034,B,0.24464345361059608
1035,B,0.20788342819101904
1036,B,0.3061530965207575
1037,B,0.26156561422119895
1038,B,0.33119137156616796
1039,B,0.2854286379377303
1040,B,0.34900587489215873
1041,B,0.24198321157832647
1042,B,0.24960472743961587
1043,B,0.23910923318781985
1044,B,0.3089079929649192
1045,B,0.20930047807176494
1046,B,0.2307157062478423
1047,B,0.2218116284525558
1048,B,0.2799236868754625
1049,B,0.2611129048665246
1050,B,0.28366290870250654
1051,B,0.21580811383163162
1052,B,0.240844958043185
1053,B,0.19497640675404546
1054,B,0.19311890045982227
1055,B,0.29140705589973404
1056,B,0.16372195389920502
1057,B,0.19539847296287916
1058,B,0.24635948156240944
1059,B,0.2623236067732343
1060,B,0.29172080031218617
1061,B,0.15543849005946386
1062,B,0.23967938036007225
1063,B,0.2190180301955635
1064,B,0.3340882957721522
1065,B,0.32703960313374714
1066,B,0.2656611489236698
1067,B,0.31873975010835887
1068,B,0.3172849994309982
1069,B,0.16707589970946168
1070,B,0.27507027252590843
1071,B,0.30935438555917993
1072,B,0.16633130601771084
1073,B,0.30568108664446114
1074,B,0.3142899554577102
1075,B,0.3214921190535364
1076,B,0.2601672820173941
1077,B,0.30652317184452715
1078,B,0.30453653512600704
1079,B,0.16815179306549158
1080,B,0.2164644446862465
1081,B,0.2747805677188555
1082,B,0.21300572387601058
1083,B,0.33328006607134164
1084,B,0.3241057521290554
1085,B,0.3120537603048814
1086,B,0.32028956191018615
1087,B,0.227480356049159
1088,B,0.31795975356190675
1089,B,0.31415985282041714
1090,B,0.2525879170080007
1091,B,0.19780668813592314
1092,B,0.18173691848760037
1093,B,0.30100111465810286
1094,B,0.17490022201018493
1095,B,0.2064850971260129
1096,B,0.3038806681683969
1097,B,0.33379480226888686
1098,B,0.23944545648801946
1099,B,0.25618658329628613
1100,B,0.3340195433478403
1101,B,0.24343574515392152
1102,B,0.20312060120027986
1103,B,0.28414758114431865
1104,B,0.34438659552573486
1105,B,0.28752242388576743
1106,B,0.33611372900378256
1107,B,0.29191320325339976
1108,B,0.316916138645395
1109,B,0.31738538205044314
1110,B,0.29338526752960215
1111,B,0.1775931550589095
1112,B,0.15082320527106877
1113,B,0.2314043790675278
1114,B,0.3183714667881702
1115,B,0.29380546414172937
1116,B,0.2803916298541894
1117,B,0.18888618566783846
1118,B,0.20385241122233186
1119,B,0.18831472390589446
1120,B,0.3093458494134001
1121,B,0.1613384905293203
1122,B,0.2720092641502379
1123,B,0.2549858495824072
1124,B,0.15735033713096894
1125,B,0.30957500391881143
1126,B,0.15513719531705647
1127,B,0.27820468779931906
1128,B,0.19083387367737809
1129,B,0.29533838898295545
1130,B,0.2709979770174753
1131,B,0.25825270737515515
1132,B,0.16168988726860095
1133,B,0.19404117129377618
1134,B,0.2056738630199272
1135,B,0.18952849463159707
1136,B,0.21801232469071896
1137,B,0.23761023965544653
1138,B,0.16225243165989503
1139,B,0.2879412604150451
1140,B,0.15990810527764854
1141,B,0.3121120513280594
1142,B,0.2702684620820092
1143,B,0.3102589179528704
1144,B,0.3334821625545723
1145,B,0.2963322896084385
1146,B,0.1936144256408928
1147,B,0.3023558486051802
1148,B,0.18840143942534254
1149,B,0.1579537746327975
1150,B,0.17100640237743378
1151,B,0.3016680955021066
1152,B,0.17065757100551213
1153,B,0.2203712603873308
1154,B,0.2399024736334221
1155,B,0.3336881190123187
1156,B,0.33683489794452703
1157,B,0.15024290106462695
1158,B,0.30628665426501656
1159,B,0.2897069068266147
1160,B,0.25043146582187503
1161,B,0.2598142865089419
1162,B,0.17564370572468477
1163,B,0.15081986195617877
1164,B,0.2939261075509845
1165,B,0.24557605674942629
1166,B,0.34447956383425105
1167,B,0.3299057455601445
1168,B,0.21378067573863213
1169,B,0.22089364463306108
1170,B,0.190563479556361
1171,B,0.17803882790838343
1172,B,0.3122215045329524
1173,B,0.1774948758045826
1174,B,0.27929498659634433
1175,B,0.2537315078230693
1176,B,0.3408825667284966
1177,B,0.2763686665522658
1178,B,0.2894222910317653
1179,B,0.21549323179597188
1180,B,0.32514993499341316
1181,B,0.2036287649737152
1182,B,0.1745412757882473
1183,B,0.33029338364680866
1184,B,0.3138894058426061
1185,B,0.3030979156914688
1186,B,0.15805295629486193
1187,B,0.15577052327113888
1188,B,0.201537495034263
1189,B,0.1594841917957194
1190,B,0.31255917215521917
1191,B,0.23322591535451231
1192,B,0.16607450731417434
1193,B,0.3100542554620983
1194,B,0.3200201918963378
1195,B,0.29604008214438593
1196,B,0.33270165416195885
1197,B,0.2499478864983175
1198,B,0.3137077254661905
1199,B,0.1950977738204281
1200,B,0.3293299955715055
1201,B,0.26224081121912163
1202,B,0.29847974654166753
1203,B,0.24986550913643812
1204,B,0.203599976673603
1205,B,0.20525261268865355
1206,B,0.3002032860522531
1207,B,0.30223268146054405
1208,B,0.19983542352592426
1209,B,0.18505838012066375
1210,B,0.22456679175972155
1211,B,0.21779431848085903
1212,B,0.28750382181488976
1213,B,0.15154434996325442
1214,B,0.22501149210898513
1215,B,0.3315149650900446
1216,B,0.31125482764171475
1217,B,0.28838401544573977
1218,B,0.3104919130925289
1219,B,0.28161398289243406
1220,B,0.16600956151983076
1221,B,0.1605598174446985
1222,B,0.21994508381026226
1223,B,0.30861727469336675
1224,B,0.16944830431297578
1225,B,0.1697463314667392
1226,B,0.18301179544041635
1227,B,0.2713910470944043
1228,B,0.2743244005190145
1229,B,0.18548019866353024
1230,B,0.22560199969305994
1231,B,0.24240206657168062
1232,B,0.32638388689708936
1233,B,0.16958206738429396
1234,B,0.23196876203645753
1235,B,0.1573958592993269
1236,B,0.32590704185362984
1237,B,0.3190925947439669
1238,B,0.3346039518604136
1239,B,0.15593961466516232
1240,B,0.2721024397527989
1241,B,0.2909830771977597
1242,B,0.2652931757704231
1243,B,0.29359603204528767
1244,B,0.19464269452038785
1245,B,0.1566824929663795
1246,B,0.29277279524989125
1247,B,0.2387425939138398
1248,B,0.26100982085642066
1249,B,0.3272565397851708
1250,B,0.1972369009168795
1251,B,0.2974468928078374
1252,B,0.2078604345284449
1253,B,0.2859112292527739
1254,B,0.17583904164845335
1255,B,0.1828120193213727
1256,B,0.24289515206525486
1257,B,0.32705800507003624
1258,B,0.19587565909105592
1259,B,0.3392029214838072
1260,B,0.2696854882671528
1261,B,0.17099617123439081
1262,B,0.17964452225640665
1263,B,0.30244965343281693
1264,B,0.24759696638897438
1265,B,0.34452137853374104
1266,B,0.22433200147242616
1267,B,0.2773024951260214
1268,B,0.2519589073496012
1269,B,0.28926460822164746
1270,B,0.1732764094146698
1271,B,0.2189264264844018
1272,B,0.2572003347091433
1273,B,0.16594614127068918
1274,B,0.18291436926934193
1275,B,0.25386059800661676
1276,B,0.29030299917592767
1277,B,0.21676238926935243
1278,B,0.1747372588155815
1279,B,0.31770576073104684
1280,B,0.17512119729087056
1281,B,0.3125354644215492
1282,B,0.17709706465367042
1283,B,0.1613436520296411
1284,B,0.3311680705343007
1285,B,0.2745481252162052
1286,B,0.20164158864469414
1287,B,0.22167906000218104
1288,B,0.25032537120185994
1289,B,0.2316485589376678
1290,B,0.27113674669973925
1291,B,0.24996833358109144
1292,B,0.32104719161061485
1293,B,0.20885767076247574
1294,B,0.21510067061336935
1295,B,0.2724008498042238
1296,B,0.34573795330345664
1297,B,0.20217425312433157
1298,B,0.27347637715526035
1299,B,0.22226201668013676
1300,B,0.26638113852438583
1301,B,0.21491928564567778
1302,B,0.3124572699243994
1303,B,0.19342155702676178
1304,B,0.19483482250290873
1305,B,0.246900080343952
1306,B,0.23515271647134012
1307,B,0.2120377475352386
1308,B,0.2717835884064681
1309,B,0.20641391026357753
1310,B,0.252463066475944
1311,B,0.3249101503161701
1312,B,0.3389831211625683
1313,B,0.2892661207949531
1314,B,0.3495506109418406
1315,B,0.23274146267194326
1316,B,0.24449728563244455
1317,B,0.22347086909650904
1318,B,0.24643684486120715
1319,B,0.24717904981268707
1320,B,0.22078454140052775
1321,B,0.2535009099510837
1322,B,0.3106027372303879
1323,B,0.3251852662308593
1324,B,0.3424097119456855
1325,B,0.3311015018123413
1326,B,0.3249712553266232
1327,B,0.26502252461595227
1328,B,0.31472173941119563
1329,B,0.20639412583358901
1330,B,0.25307656932489314
1331,B,0.3038675996107222
1332,B,0.24299611306306207
1333,B,0.23044327733111403
1334,B,0.33735970681061017
1335,B,0.24949715052550053
1336,B,0.21014552177963397
1337,B,0.28533154277488426
1338,B,0.18160114056378573
1339,B,0.1914937669391542
1340,B,0.19586948267184864
1341,B,0.20305825431772914
1342,B,0.2525071755190528
1343,B,0.16439855875466766
1344,B,0.34546568920047765
1345,B,0.24817698867530552
1346,B,0.19491247850547297
1347,B,0.3341142587666737
1348,B,0.16209578059565108
1349,B,0.32012513183706925
1350,B,0.2912517713684146
1351,B,0.28020184854311536
1352,B,0.31829222992550843
1353,B,0.26535270239035214
1354,B,0.245049121563152
1355,B,0.21863276847911847
1356,B,0.1698036809207736
1357,B,0.32320754715043276
1358,B,0.27583792379942323
1359,B,0.27817266909580457
1360,B,0.3072626749645485
1361,B,0.21147650415437735
1362,B,0.23695353900304994
1363,B,0.21922519975240662
1364,B,0.32272709378764247
1365,B,0.3469898345605531
1366,B,0.23778884156999236
1367,B,0.3290627284015678
1368,B,0.3038616451273679
1369,B,0.2392869109499327
1370,B,0.3417426963595674
1371,B,0.27263242655638487
1372,B,0.22860186263587634
1373,B,0.24605175907395033
1374,B,0.2972416500920172
1375,B,0.20395223009355812
1376,B,0.32889969712877204
1377,B,0.27877373286917473
1378,B,0.3251648626891177
1379,B,0.28921567434359996
1380,B,0.2621004726447258
1381,B,0.16260358653377566
1382,B,0.2984334771519932
1383,B,0.19333077394254217
1384,B,0.32008939849218837
1385,B,0.1716751651801808
1386,B,0.3482176059628328
1387,B,0.25374947618614374
1388,B,0.18302660672729043
1389,B,0.1825169628376386
1390,B,0.2731872418648421
1391,B,0.24624779100268912
1392,B,0.31397993416550146
1393,B,0.27261166558055433
1394,B,0.17702462632699376
1395,B,0.19172171041478803
1396,B,0.15716463732279165
1397,B,0.23021659927855193
1398,B,0.3232076864002038
1399,B,0.24728680951114557
1400,B,0.15048369633602257
1401,B,0.1795813556424328
1402,B,0.2559013075685277
1403,B,0.34271268173917313
1404,B,0.3006572354931713
1405,B,0.31797480780011445
1406,B,0.2911826693713827
1407,B,0.3233167811370196
1408,B,0.23513269366303394
1409,B,0.2809610184978052
1410,B,0.15512327505026838
1411,B,0.34855761189433804
1412,B,0.22049175862375187
1413,B,0.1566783008909572
1414,B,0.29202712455777047
1415,B,0.31047979685101423
1416,B,0.3067792276649084
1417,B,0.24872323590806736
1418,B,0.1772183698271714
1419,B,0.34126749531139655
1420,B,0.34367608637644176
1421,B,0.3349739411357754
1422,B,0.34671374645631353
1423,B,0.31115125070552097
1424,B,0.21904356903849137
1425,B,0.32334989048507357
1426,B,0.2748875181885231
1427,B,0.1950328929053198
1428,B,0.19721021516588283
1429,B,0.31848787152698055
1430,B,0.3218217009068944
1431,B,0.3444318203868684
1432,B,0.31631615438520333
1433,B,0.20646331384205474
1434,B,0.2959732199716223
1435,B,0.2627341591355858
1436,B,0.29688594816592917
1437,B,0.3284961570936618
1438,B,0.340651014761119
1439,B,0.3143381183772944
1440,B,0.24268837574011587
1441,B,0.25558192777836797
1442,B,0.3408195733111913
1443,B,0.18127652593482185
1444,B,0.1765532493012989
1445,B,0.2631442929637424
1446,B,0.20617860864956916
1447,B,0.16847751026614144
1448,B,0.29350540185933727
1449,B,0.2149712109558217
1450,B,0.2680634640764602
1451,B,0.2096384521836659
1452,B,0.3485651242367026
1453,B,0.17603195027384622
1454,B,0.21843864467119808
1455,B,0.28235279465733853
1456,B,0.31384512337081405
1457,B,0.22509817494199413
1458,B,0.16113360519142605
1459,B,0.2551010609483368
1460,B,0.2813709639870803
1461,B,0.22004094679880037
1462,B,0.3460384508253035
1463,B,0.3207938690793994
1464,B,0.27486120583831747
1465,B,0.292555182027019
1466,B,0.2981762624343345
1467,B,0.3481131827696403
1468,B,0.19168388921599275
1469,B,0.3433001608863775
1470,B,0.2373204806531259
1471,B,0.2938891672495722
1472,B,0.2521708701894574
1473,B,0.3327323923582024
1474,B,0.16015318842454648
1475,B,0.3141546608271018
1476,B,0.34577187802465925
1477,B,0.27564363112415685
1478,B,0.2197419011990529
1479,B,0.19384193759184393
1480,B,0.31219595966181335
1481,B,0.2500258764751359
1482,B,0.2948726059252802
1483,B,0.23901328681460943
1484,B,0.25680751721655914
1485,B,0.20310955519000556
1486,B,0.3314663953850749
1487,B,0.2744124637322672
1488,B,0.26446440722143055
1489,B,0.2594365246149143
1490,B,0.22160346939754594
1491,B,0.21847127077310116
1492,B,0.3003384181578004
1493,B,0.21135476050864888
1494,B,0.29011078154502
1495,B,0.22038318429252501
1496,B,0.2556047214031465
1497,B,0.24182178127900317
1498,B,0.31220955889515145
1499,B,0.20282640293128015
1500,B,0.19219007607919977
1501,B,0.18599231743421918
1502,B,0.19477307783724507
1503,B,0.3374958966823978
1504,B,0.15775923597047198
1505,B,0.2620914959842739
1506,B,0.15552074862010987
1507,B,0.3141298230731987
1508,B,0.28046932585039797
1509,B,0.15328606735929398
1510,B,0.2861718467352177
1511,B,0.19525033597199837
1512,B,0.3041670627520828
1513,B,0.24368903533904074
1514,B,0.26268347601848246
1515,B,0.33779902277045915
1516,B,0.28520855560928454
1517,B,0.3379106083475332
1518,B,0.28830686599251
1519,B,0.20277856409486267
1520,B,0.22863081263240434
1521,B,0.2533584742647144
1522,B,0.3126063373822516
1523,B,0.3309535359129155
1524,B,0.30383207342008356
1525,B,0.34797161592763304
1526,B,0.24858994721289235
1527,B,0.2277320162284846
1528,B,0.20252443841582507
1529,B,0.30537429030031804
1530,B,0.24445167850032334
1531,B,0.2774701523782338
1532,B,0.18379992977369622
1533,B,0.1899712309937768
1534,B,0.26309568320175425
1535,B,0.2597823151349651
1536,B,0.3364908005210477
1537,B,0.22242628392201155
1538,B,0.2741149240212365
1539,B,0.21533693961073572
1540,B,0.3448547080551916
1541,B,0.25995266936724365
1542,B,0.18367341682833274
1543,B,0.3149253222998876
1544,B,0.18109499317568328
1545,B,0.1974690351008701
1546,B,0.1710104555054361
1547,B,0.20159683416152657
1548,B,0.2002983496631352
1549,B,0.24741728721737713
1550,B,0.30431261609156157
1551,B,0.17331641599077896
1552,B,0.27753935446862954
1553,B,0.33289918687356174
1554,B,0.3106130149236451
1555,B,0.17052591526565544
1556,B,0.252479147021594
1557,B,0.1885203999772661
1558,B,0.2753418522338654
1559,B,0.26050337830549314
1560,B,0.231680952368928
1561,B,0.23112334248853056
1562,B,0.2913145221876773
1563,B,0.22122036748100102
1564,B,0.3486466269022143
1565,B,0.28782244362795983
1566,B,0.22345715209056666
1567,B,0.1572963646496587
1568,B,0.2702732660934945
1569,B,0.2876016836549039
1570,B,0.31931505924457193
1571,B,0.2691726454308562
1572,B,0.21354933758008676
1573,B,0.3441401102031525
1574,B,0.15693300568859755
1575,B,0.27573803167826794
1576,B,0.2782558762567651
1577,B,0.31979073924736184
1578,B,0.30956147706264964
1579,B,0.21189517731954677
1580,B,0.29823802097966046
1581,B,0.26799615190853077
1582,B,0.17211309184344928
1583,B,0.3248980849350372
1584,B,0.31022003868040393
1585,B,0.23956574047152907
1586,B,0.24012008144677444
1587,B,0.22976487805656087
1588,B,0.3419183143435416
1589,B,0.3451238720109218
1590,B,0.18156269227600702
1591,B,0.20097222239305862
1592,B,0.24015605411293778
1593,B,0.3161802387492598
1594,B,0.16073985419369777
1595,B,0.21482766746468188
1596,B,0.1822891004145319
1597,B,0.2518385733344394
1598,B,0.21070403908757715
1599,B,0.2356329501262389
1600,B,0.3007130184833717
1601,B,0.3146259291755602
1602,B,0.22392674436032636
1603,B,0.25030469819676804
1604,B,0.2941853475638934
1605,B,0.19400017360451013
1606,B,0.1652704467347743
1607,B,0.15838240493038427
1608,B,0.18896324645873805
1609,B,0.2762877502854723
1610,B,0.16391384179936722
1611,B,0.18059000332107122
1612,B,0.3449237833457909
1613,B,0.2027212625122556
1614,B,0.27218750703747085
1615,B,0.2189786894994816
1616,B,0.25936067406304814
1617,B,0.32309211107794883
1618,B,0.1933087521469293
1619,B,0.20842639797725543
1620,B,0.21329810842176677
1621,B,0.26965638893175986
1622,B,0.21020015081266546
1623,B,0.18241742887979767
1624,B,0.25679739449533
1625,B,0.22543888165577325
1626,B,0.2803631685137248
1627,B,0.21559551773117722
1628,B,0.26992630166005926
1629,B,0.2835882974767666
1630,B,0.15110076035774384
1631,B,0.3149230654801467
1632,B,0.2239966925223188
1633,B,0.2380343892578185
1634,B,0.16242044293127117
1635,B,0.17140835658551726
1636,B,0.16501454189716305
1637,B,0.15001747255697576
1638,B,0.25381122710012155
1639,B,0.29367531535930635
1640,B,0.22712328293554518
1641,B,0.2580606763962503
1642,B,0.18703231691301292
1643,B,0.15886449706974243
1644,B,0.344278491890039
1645,B,0.292260765934915
1646,B,0.31755014499419165
1647,B,0.1966673551209318
1648,B,0.33431867220625583
1649,B,0.19317835334648886
1650,B,0.17414128179555402
1651,B,0.25215802519298897
1652,B,0.2236271751172231
1653,B,0.17042096547910732
1654,B,0.33974817181179556
1655,B,0.2965157608878136
1656,B,0.23915945202812278
1657,B,0.34190966855205157
1658,B,0.3471592179766658
1659,B,0.208090308355063
1660,B,0.34913546746699786
1661,B,0.31343826812872927
1662,B,0.2482727468466855
1663,B,0.2957672331637031
1664,B,0.23631738286683726
1665,B,0.30279425775754687
1666,B,0.23069825459405027
1667,B,0.32989115355129744
1668,B,0.17008228321931326
1669,B,0.33781265032219154
1670,B,0.29068233865986726
1671,B,0.1871945587436011
1672,B,0.2655815727941505
1673,B,0.21986677296110263
1674,B,0.29421877200410496
1675,B,0.326840492815287
1676,B,0.22635700531280406
1677,B,0.17993057199715728
1678,B,0.2435441281325994
1679,B,0.25024668341485146
1680,B,0.19479505779623218
1681,B,0.25039930642421515
1682,B,0.17045113142904475
1683,B,0.3497576618273674
1684,B,0.3292419837940735
1685,B,0.2750196872337398
1686,B,0.21322275971436525
1687,B,0.33570453881419904
1688,B,0.17408615458883903
1689,B,0.25054577004057815
1690,B,0.2698014347855727
1691,B,0.15946369422730045
1692,B,0.2974074579198801
1693,B,0.27884645020162
1694,B,0.33789435670230805
1695,B,0.16539497518854981
1696,B,0.30288084209401095
1697,B,0.16580832830240416
1698,B,0.2739394714742687
1699,B,0.3375410087530881
1700,B,0.25851253218859
1701,B,0.2737304123231421
1702,B,0.1841102484689501
1703,B,0.2259197414582453
1704,B,0.3467802298264844
1705,B,0.20525282459119346
1706,B,0.22306356497961247
1707,B,0.2717739520976373
1708,B,0.24977915167122605
1709,B,0.2186332640343163
1710,B,0.1757328970079882
1711,B,0.31694073637606957
1712,B,0.2985472202875662
1713,B,0.2660154788849395
1714,B,0.34533064027686194
1715,B,0.23066384518456137
1716,B,0.21855735441883348
1717,B,0.19641523333458968
1718,B,0.1561788189137137
1719,B,0.18780590035762634
1720,B,0.3332845789139705
1721,B,0.2540255136734736
1722,B,0.32570447736178165
1723,B,0.28904319434974646
1724,B,0.3305284593147832
1725,B,0.2644354214869615
1726,B,0.2748787618494719
1727,B,0.32365202799476717
1728,B,0.23136128464061456
1729,B,0.247248227947083
1730,B,0.15504856641109474
1731,B,0.3419918950162658
1732,B,0.29393696816604575
1733,B,0.3189343325494418
1734,B,0.3120908111787105
1735,B,0.17232406279159557
1736,B,0.24317006093018362
1737,B,0.20483860545154164
1738,B,0.30228664010334916
1739,B,0.29066027604991096
1740,B,0.17494986702264523
1741,B,0.18615174602080006
1742,B,0.341392098086978
1743,B,0.20137960233435556
1744,B,0.2972428489685163
1745,B,0.22540497245984478
1746,B,0.2150722213511828
1747,B,0.1599199767464232
1748,B,0.32737788713017696
1749,B,0.23832447858765482
1750,B,0.1914183853654452
1751,B,0.30967616688827393
1752,B,0.24821527225764245
1753,B,0.2965641500031351
1754,B,0.21222828022536055
1755,B,0.2793514411431788
1756,B,0.1606702968172458
1757,B,0.30230289862564286
1758,B,0.32944427388218506
1759,B,0.33135117611745935
1760,B,0.25724716127267944
1761,B,0.1868911673100908
1762,B,0.3465638308802556
1763,B,0.2949087866353586
1764,B,0.27359051063055656
1765,B,0.28820734453387964
1766,B,0.22522251954116285
1767,B,0.27382354265151887
1768,B,0.16906426130852192
1769,B,0.2751610685974486
1770,B,0.3101913484912453
1771,B,0.31113526827368077
1772,B,0.22397295402778117
1773,B,0.2789683501630869
1774,B,0.3099452691758337
1775,B,0.20757789542241534
1776,B,0.16644180007312678
1777,B,0.24370209456124886
1778,B,0.33032930732133553
1779,B,0.2337308159534767
1780,B,0.2647876611199003
1781,B,0.18569972128899603
1782,B,0.2928011038855244
1783,B,0.15906427526572275
1784,B,0.3446817082940967
1785,B,0.1762856832050481
1786,B,0.2604311812264626
1787,B,0.29422146782919045
1788,B,0.16495947096220898
1789,B,0.2891117531728236
1790,B,0.17841874060467722
1791,B,0.169949399580093
1792,B,0.30088626335609414
1793,B,0.25616209769661397
1794,B,0.1667493306155006
1795,B,0.18987873516671952
1796,B,0.20636932845389339
1797,B,0.18575996905162218
1798,B,0.18083843814429287
1799,B,0.1848476157022583
1800,B,0.34324899304146017
1801,B,0.2983768364264031
1802,B,0.19233659906158404
1803,B,0.2868336205801828
1804,B,0.22601454869314283
1805,B,0.17465977873101782
1806,B,0.21503293704925674
1807,B,0.26488304658875633
1808,B,0.28620652613148356
1809,B,0.17287485115169207
1810,B,0.31858285083722593
1811,B,0.33995980233133677
1812,B,0.3096229005593205
1813,B,0.244635805890546
1814,B,0.2226182844388792
1815,B,0.24432506217915284
1816,B,0.2911852330631747
1817,B,0.22518520988074753
1818,B,0.19549721237723697
1819,B,0.2457128692766875
1820,B,0.22163447138435657
1821,B,0.26515490540672354
1822,B,0.2843367110170014
1823,B,0.20466240869537095
1824,B,0.31116712648268263
1825,B,0.28537959699536886
1826,B,0.29563876753531226
1827,B,0.25102029065579773
1828,B,0.29456658119364987
1829,B,0.25028763963284917
1830,B,0.2757995098635446
1831,B,0.20770885726510896
1832,B,0.3318715763566964
1833,B,0.15799571590252576
1834,B,0.18271048225208322
1835,B,0.23802780431296755
1836,B,0.2340639148458324
1837,B,0.32004562102845013
1838,B,0.23379301593955193
1839,B,0.2255474220052393
1840,B,0.23534338502120922
1841,B,0.28517014273066055
1842,B,0.2326084461868626
1843,B,0.2704692696622266
1844,B,0.2481708923122014
1845,B,0.3353255846882502
1846,B,0.21587695007752541
1847,B,0.22641586894822044
1848,B,0.16058416102272252
1849,B,0.1527541395478779
1850,B,0.27894429899228845
1851,B,0.28600763156341724
1852,B,0.253313317108144
1853,B,0.3404457025807394
1854,B,0.1610101315990198
1855,B,0.23289500311647893
1856,B,0.31846928405306196
1857,B,0.16520254482890764
1858,B,0.2773281704517744
1859,B,0.1559376744603829
1860,B,0.2734884480674481
1861,B,0.33329635691843074
1862,B,0.319737811389846
1863,B,0.33490183064896406
1864,B,0.28794027643404885
1865,B,0.23209972426876502
1866,B,0.31718054449609
1867,B,0.3111878036824136
1868,B,0.24004388056343
1869,B,0.30548986742762074
1870,B,0.29866181523499535
1871,B,0.27265713180972634
1872,B,0.17427746756979512
1873,B,0.16081944986243915
1874,B,0.18314021390418356
1875,B,0.21240576998154315
1876,B,0.16814869776767996
1877,B,0.27699699299349445
1878,B,0.1999084270528595
1879,B,0.26464290816535924
1880,B,0.220017392399444
1881,B,0.2300748197056831
1882,B,0.22174653861123073
1883,B,0.15535187638150277
1884,B,0.3056647454879565
1885,B,0.2548615160795745
1886,B,0.2964381189489464
1887,B,0.31111924614920416
1888,B,0.3226213041558166
1889,B,0.26017125884053083
1890,B,0.21325902235117938
1891,B,0.3394742550150641
1892,B,0.3113849001008042
1893,B,0.3493889812277036
1894,B,0.32177354910959405
1895,B,0.170569029382435
1896,B,0.23059412034009996
1897,B,0.297927165031731
1898,B,0.19618960460487647
1899,B,0.18520735149045275
1900,B,0.15766528402928723
1901,B,0.17470106688083945
1902,B,0.23105410390885203
1903,B,0.3136091541936115
1904,B,0.1586436806043721
1905,B,0.21371545467212472
1906,B,0.27238008378456957
1907,B,0.3089081324920302
1908,B,0.2512962325862248
1909,B,0.16353018635323863
1910,B,0.2931722925335243
1911,B,0.2271805228941531
1912,B,0.277805523416936
1913,B,0.21005500465031576
1914,B,0.18113849019329537
1915,B,0.23298781159478182
1916,B,0.3264574955926146
1917,B,0.283668661692131
1918,B,0.1786463676258688
1919,B,0.27698109788512926
1920,B,0.1772691023645639
1921,B,0.2862046485929134
1922,B,0.17605842959784385
1923,B,0.3067096429251127
1924,B,0.32633681958262084
1925,B,0.22808286138608058
1926,B,0.29041102290994836
1927,B,0.25865080208161895
1928,B,0.34263911389649443
1929,B,0.16780246836949023
1930,B,0.28070125484349606
1931,B,0.3374409796865763
1932,B,0.2000842360609517
1933,B,0.17246776387063067
1934,B,0.30847335158723255
1935,B,0.3497265846559267
1936,B,0.31939753089001865
1937,B,0.3391644575188263
1938,B,0.2659815516393388
1939,B,0.2482222829476587
1940,B,0.2504662413600133
1941,B,0.2117744842879774
1942,B,0.15962019631474547
1943,B,0.19219717081086965
1944,B,0.24721103825102447
1945,B,0.2817118381275172
1946,B,0.26323770422893145
1947,B,0.19304167296986643
1948,B,0.16443099425487842
1949,B,0.23579793739320692
1950,B,0.27005653229391713
1951,B,0.34145690448171756
1952,B,0.3006810833892818
1953,B,0.15263727994590467
1954,B,0.2799701036409161
1955,B,0.2172976166614045
1956,B,0.2447744239320005
1957,B,0.3132305777879002
1958,B,0.1790313863726848
1959,B,0.24909783486858517
1960,B,0.3434271745680689
1961,B,0.24284247264701408
1962,B,0.1700203274264557
1963,B,0.26953347447987297
1964,B,0.23431281020732964
1965,B,0.1894670806189872
1966,B,0.32795879983943904
1967,B,0.23791967490799226
1968,B,0.2395836180544777
1969,B,0.3022526471111995
1970,B,0.19456394087151396
1971,B,0.17602020692798998
1972,B,0.3242994040044235
1973,B,0.29688302402267386
1974,B,0.19098576317081462
1975,B,0.152180439673015
1976,B,0.22323563052764367
1977,B,0.2411675954285451
1978,B,0.2568620827966289
1979,B,0.17487082194593015
1980,B,0.24608585587525947
1981,B,0.31110515568941843
1982,B,0.27874847426248456
1983,B,0.23204761745285254
1984,B,0.20553902384838652
1985,B,0.22310811378555626
1986,B,0.3366336315694812
1987,B,0.24580096960256453
1988,B,0.2044711191152037
1989,B,0.15435182130099404
1990,B,0.165609745287239
1991,B,0.3208973901535147
1992,B,0.16588597741553313
1993,B,0.1659894492106937
1994,B,0.2860319637631775
1995,B,0.2953043215742173
1996,B,0.3110148491925866
1997,B,0.21633651145018662
1998,B,0.196240082923987
1999,B,0.2720616300466264
