,Variant,Engagement_Time
0,A,46.654743872772656
1,A,58.02799544854192
2,A,52.138219223457526
3,A,63.268520984633795
4,A,56.816902982038854
5,A,69.31535678748457
6,A,37.447373265418825
7,A,71.10970614715345
8,A,56.152986144130615
9,A,79.33350002904706
10,A,62.09499697518588
11,A,69.52024514942589
12,A,50.34876702513745
13,A,56.643083265992516
14,A,62.172576345944016
15,A,60.821825725322824
16,A,48.93660247632175
17,A,57.28895464036299
18,A,55.05564028829549
19,A,55.62698275986151
20,A,65.43508085764978
21,A,63.67430541294114
22,A,54.094870139022355
23,A,62.091217409174504
24,A,64.02951755625092
25,A,62.574212654600075
26,A,70.35714476033736
27,A,72.977549863323
28,A,71.05081000330183
29,A,62.63328677290122
30,A,64.34180726076401
31,A,59.504853732375715
32,A,54.429701404821245
33,A,57.41417647908286
34,A,63.111535985224926
35,A,69.53562120145125
36,A,65.03367010098799
37,A,66.6201430488747
38,A,40.26045671892325
39,A,54.37892720847379
40,A,73.7834843603177
41,A,66.32666795196842
42,A,66.34043792628012
43,A,56.95266200682109
44,A,54.406036135794
45,A,71.87632045423635
46,A,77.67947491909287
47,A,56.487443918966925
48,A,45.009070520791845
49,A,50.79215837037335
50,A,72.70308540778294
51,A,57.38883231853069
52,A,56.11003145186643
53,A,65.38381421147884
54,A,52.691126149657855
55,A,57.907400848850685
56,A,70.06362149448572
57,A,56.56174193526156
58,A,57.84618581017508
59,A,49.53957800143088
60,A,42.50722022041471
61,A,56.16368658949421
62,A,55.95764572184662
63,A,60.76471418391012
64,A,70.11392145902703
65,A,48.05719322007108
66,A,57.35041493786936
67,A,64.16395102483851
68,A,39.509350566623155
69,A,57.60955069383842
70,A,71.96836175346243
71,A,56.1377123126209
72,A,72.89363933127723
73,A,66.66130726147352
74,A,41.433914458682224
75,A,48.36738910546742
76,A,59.73915205903436
77,A,60.610439804167
78,A,36.611107298861675
79,A,67.37951544086143
80,A,66.33953348149129
81,A,71.69378098083676
82,A,57.3064003774407
83,A,78.41104503013096
84,A,56.37139181686767
85,A,54.12627064995038
86,A,51.50179757536469
87,A,59.077151454432524
88,A,63.3402109205821
89,A,52.2439876643097
90,A,66.46727536596752
91,A,61.64801372700899
92,A,50.671469469500494
93,A,50.56868532122029
94,A,65.12941685442668
95,A,42.72377722722023
96,A,65.56815273713498
97,A,57.03958937118581
98,A,38.1230740185433
99,A,63.69727938712857
100,A,56.98800860745449
101,A,51.914951698463135
102,A,44.074108139856094
103,A,65.45031709436952
104,A,67.71166453147158
105,A,68.47243744826082
106,A,49.60708605876175
107,A,55.9505110745814
108,A,52.23539096030816
109,A,73.30810059745596
110,A,65.13943844812259
111,A,66.98691513926062
112,A,76.16046020995768
113,A,59.97435563906611
114,A,50.879471288489405
115,A,74.72398696033626
116,A,65.70188322930443
117,A,44.097471331195194
118,A,63.66233595554192
119,A,61.28449375961322
120,A,67.28161637649903
121,A,60.82825422818956
122,A,49.429414085984945
123,A,63.682556228411656
124,A,54.37735810909837
125,A,60.47192372427039
126,A,45.136652823298995
127,A,65.11667065782194
128,A,55.19983098532825
129,A,63.050561122623996
130,A,50.619114766041164
131,A,62.27106447002246
132,A,49.04011559110667
133,A,57.48143905890261
134,A,56.255442954252615
135,A,53.95483107655832
136,A,77.0947688303794
137,A,56.359804230880755
138,A,72.21031471119264
139,A,60.0673042282552
140,A,60.97788857569121
141,A,67.46273097262363
142,A,49.51880911550037
143,A,47.356013701511095
144,A,58.65653151001048
145,A,61.00091400602212
146,A,67.15910979015312
147,A,54.83263920401036
148,A,62.84005111750788
149,A,57.02913975553843
150,A,71.57600460516191
151,A,62.17313597580005
152,A,62.28797418749649
153,A,61.70366910135376
154,A,45.26663318233711
155,A,43.47870064065418
156,A,52.651860027552
157,A,67.97879480158053
158,A,57.53964255842145
159,A,67.49925953882217
160,A,59.356376254778375
161,A,61.76910183525206
162,A,60.6633661229076
163,A,49.285975715314926
164,A,61.38200118498144
165,A,60.49151248953887
166,A,64.1048250117162
167,A,51.34760810361639
168,A,68.89744903916564
169,A,62.47199319543304
170,A,48.65506105319736
171,A,53.72815965898483
172,A,62.169433096700054
173,A,65.70964710844974
174,A,63.39674026068219
175,A,49.02834737107931
176,A,64.39337012913529
177,A,65.20949792113682
178,A,63.86808754304603
179,A,43.13180063658811
180,A,53.150354087186116
181,A,37.749793250990116
182,A,48.7139438148136
183,A,44.49275434838349
184,A,59.906047203816776
185,A,64.70682448382642
186,A,60.27465363567383
187,A,49.03065482721432
188,A,62.075990871764986
189,A,49.09210880268731
190,A,53.45401031304399
191,A,69.01021921385774
192,A,57.483048402916125
193,A,56.955706940751696
194,A,57.833103504990866
195,A,48.0365893680221
196,A,49.57742480067247
197,A,62.38571897232663
198,A,40.43563082870795
199,A,75.1220265502646
200,A,34.25150414988147
201,A,52.869902637873906
202,A,64.6201197419845
203,A,49.16345061774446
204,A,64.06783466583316
205,A,69.65159081572807
206,A,47.394983986670226
207,A,63.26983443464664
208,A,57.79159998956924
209,A,56.46736337754756
210,A,41.51937014950691
211,A,64.12993762088784
212,A,75.40394015847195
213,A,70.14168335325365
214,A,61.83502420038161
215,A,67.77144967956927
216,A,34.846585100306456
217,A,71.99950997481717
218,A,56.465637667002476
219,A,47.117018079596846
220,A,64.68705508454119
221,A,69.91967757655753
222,A,54.28227460158815
223,A,72.08250676550878
224,A,63.06533516996302
225,A,77.96615577586998
226,A,51.77093628329523
227,A,58.878040348053624
228,A,53.451929004288324
229,A,64.59813226418494
230,A,38.02099089989283
231,A,49.95281247258464
232,A,65.19646039529471
233,A,57.246817534956804
234,A,71.55625042767969
235,A,64.88802636336281
236,A,44.13891605712604
237,A,57.467469270153174
238,A,70.81285066339223
239,A,66.98042411858708
240,A,79.29140803014687
241,A,72.68439639983771
242,A,65.66836897839082
243,A,67.7334805664396
244,A,52.2423028565853
245,A,64.72480275088357
246,A,60.82038730987867
247,A,52.21901816529384
248,A,56.56999058139751
249,A,67.2233271357213
250,A,58.70653775428423
251,A,72.61914176817169
252,A,57.512167483013414
253,A,52.54389200520948
254,A,45.872879804032095
255,A,53.365446784972754
256,A,66.99533481511375
257,A,49.66764327797964
258,A,67.941238848136
259,A,59.572123464433815
260,A,61.01225084663
261,A,57.2712556863848
262,A,72.10001534616372
263,A,61.57395502850809
264,A,61.18985862837246
265,A,66.36148267955801
266,A,65.81005612139454
267,A,66.16725229876187
268,A,56.64955063771903
269,A,60.790371300591694
270,A,65.90179897799283
271,A,52.03115112765351
272,A,56.41683607638447
273,A,58.19520805318385
274,A,75.05017190044089
275,A,84.52304520922894
276,A,31.974264903175303
277,A,51.31466649005229
278,A,55.911310026159725
279,A,66.9639910253928
280,A,66.72385504733616
281,A,59.19176889980142
282,A,55.72403340171646
283,A,57.018718452832964
284,A,33.09484212519573
285,A,61.755875630995874
286,A,61.43733875691246
287,A,53.031392713227234
288,A,44.90501967650205
289,A,47.40785543824198
290,A,72.98791109852672
291,A,48.36964729505489
292,A,68.58240853780745
293,A,55.77858310091378
294,A,54.994089354610416
295,A,66.32124325789981
296,A,77.91865780356407
297,A,42.417494884090246
298,A,51.576699301743105
299,A,62.88200033932841
300,A,68.35141149580267
301,A,57.633906766375
302,A,74.48834381379234
303,A,74.92534188991112
304,A,60.58074922721254
305,A,59.18068778374856
306,A,76.80458316154068
307,A,54.90512276197211
308,A,65.8014726396013
309,A,52.792417447773595
310,A,77.53878545976082
311,A,41.58450563580771
312,A,73.20801063719726
313,A,66.74391190284081
314,A,59.87691141006141
315,A,57.142356575800825
316,A,56.89321200333299
317,A,53.89000731515945
318,A,54.46507814132049
319,A,44.79023626916017
320,A,64.13856400122411
321,A,44.324726499827534
322,A,58.64440957401707
323,A,61.769427278401544
324,A,51.14310487194895
325,A,43.042218049638564
326,A,51.42099757483666
327,A,50.81966683297557
328,A,73.46061596432203
329,A,57.53945258537252
330,A,70.57454301865388
331,A,57.09391778290873
332,A,48.58977314403011
333,A,54.476982953220954
334,A,62.29956737975218
335,A,70.53560755767744
336,A,73.71008181676268
337,A,63.534539133249794
338,A,57.62722954912499
339,A,56.28510794774027
340,A,51.13896492633383
341,A,77.86400246704497
342,A,51.9409578342948
343,A,57.674861787217644
344,A,57.442543720063505
345,A,59.03972435833672
346,A,84.25674164526828
347,A,59.90163084983095
348,A,62.43977729067248
349,A,66.49993937537444
350,A,69.34595350113017
351,A,55.80945278952111
352,A,70.97505351681195
353,A,65.00026521901053
354,A,42.189288651853985
355,A,69.77015563354853
356,A,53.9586214525496
357,A,49.300137955134396
358,A,44.37391124204192
359,A,56.959185065159
360,A,59.51552198804023
361,A,66.18142323116547
362,A,62.274766474284206
363,A,65.35812021897503
364,A,52.41722947621646
365,A,52.1568678711138
366,A,66.05719829115043
367,A,60.373929679208636
368,A,64.79176597297808
369,A,70.22646186476894
370,A,51.673775807407736
371,A,55.81839156066647
372,A,64.54163829652082
373,A,46.95647874365093
374,A,53.37127878108679
375,A,62.63855665652412
376,A,51.80334390356347
377,A,70.64125729571964
378,A,77.54431978524941
379,A,57.855916553626926
380,A,79.8657414684767
381,A,55.862059690109035
382,A,52.76403242862915
383,A,51.6206532099378
384,A,56.36557760660755
385,A,83.26526105756804
386,A,66.21078918734239
387,A,67.64374039659847
388,A,76.05322595593402
389,A,42.88785799767578
390,A,65.75914353726931
391,A,74.91900215320932
392,A,63.609046347792074
393,A,75.55254886265494
394,A,40.60181144021348
395,A,57.514075459694695
396,A,44.23664795424145
397,A,61.83503341760608
398,A,75.65678485513135
399,A,58.651903461325624
400,A,53.417109764771325
401,A,58.96491779726065
402,A,53.49262387993398
403,A,66.07428229935994
404,A,76.40021097280389
405,A,59.91863052836004
406,A,50.43271099282026
407,A,62.32380570068623
408,A,58.884834650495726
409,A,59.92678162250811
410,A,42.78213730476124
411,A,56.796167082884054
412,A,77.00416569195755
413,A,52.93093783197921
414,A,67.9475844591449
415,A,56.317833083115566
416,A,53.451518520463694
417,A,42.11617362026888
418,A,64.69062139642698
419,A,56.601324489977806
420,A,59.78817200710567
421,A,56.53961769396069
422,A,54.17375803626972
423,A,48.18027001309044
424,A,74.37063296159968
425,A,62.80600045588631
426,A,60.66570722092344
427,A,48.474580917079905
428,A,54.63573054351731
429,A,55.02359979308031
430,A,59.20822013909894
431,A,47.80029614605398
432,A,89.42600060004568
433,A,61.53460115084962
434,A,49.65830399418877
435,A,67.56633594429151
436,A,44.205652366896
437,A,51.33565535887325
438,A,59.617371036861485
439,A,63.88724626587606
440,A,69.03137218508938
441,A,71.487954739359
442,A,40.31778773723211
443,A,47.99176777524464
444,A,55.85603788774775
445,A,65.97072103551724
446,A,59.6264711947128
447,A,43.085531569268696
448,A,62.191635027117506
449,A,57.907138757294085
450,A,72.47297881215741
451,A,67.72719572446915
452,A,66.80810411373525
453,A,68.53228181472362
454,A,71.1908652837096
455,A,42.80410711364858
456,A,58.526330201048275
457,A,61.50379203549785
458,A,64.17151227924971
459,A,41.92079489684246
460,A,55.69017696729411
461,A,57.78856887194215
462,A,91.66281211621951
463,A,75.94334917603777
464,A,66.27219407117903
465,A,69.27189144652097
466,A,56.28338470389645
467,A,61.56171191222876
468,A,65.19474500002296
469,A,50.864311791415915
470,A,54.008615369812354
471,A,72.26356681796881
472,A,56.293374243197164
473,A,81.36943329574342
474,A,53.02793041130637
475,A,59.58540595882809
476,A,71.52685960603286
477,A,64.92029425881094
478,A,68.42354065094662
479,A,53.576697555035736
480,A,60.566295478982695
481,A,54.60373950981015
482,A,73.89902714646941
483,A,84.3736596274668
484,A,71.00839951928846
485,A,41.81123773966712
486,A,59.002400994387365
487,A,54.827573270785976
488,A,69.10708011720973
489,A,65.55517327357164
490,A,50.48898433849365
491,A,65.5963131910956
492,A,63.980606562472644
493,A,60.191323743132145
494,A,66.71670909319813
495,A,61.51115496834238
496,A,60.49510807560357
497,A,62.32602429020913
498,A,78.42430163955993
499,A,70.2062768806058
500,A,39.55870276326136
501,A,56.64920816414756
502,A,43.358598217352366
503,A,54.54155129077519
504,A,69.01640281711036
505,A,61.073761494838685
506,A,67.80596884461269
507,A,54.26355900980727
508,A,49.5602991616195
509,A,59.245782931437276
510,A,62.977668278883655
511,A,70.38058859869187
512,A,55.352539232643736
513,A,60.272788647542725
514,A,56.63493674035394
515,A,64.67008080792975
516,A,58.3848557951718
517,A,64.62368271939867
518,A,65.62848793147461
519,A,79.57213145116694
520,A,47.72094523455944
521,A,52.97106527478632
522,A,67.84849235177478
523,A,61.9939470124824
524,A,49.900470517467745
525,A,50.010933963723005
526,A,64.88815295374971
527,A,60.16037939945393
528,A,58.83768257437998
529,A,70.8378919779204
530,A,41.99180572224735
531,A,80.42411647423422
532,A,65.27734651295492
533,A,55.19637092240799
534,A,62.54040092302737
535,A,55.17687721409999
536,A,52.72983810907762
537,A,55.33782873628497
538,A,65.16685950170395
539,A,75.74337325243062
540,A,66.4416888845706
541,A,51.04358405965675
542,A,49.261540336511004
543,A,46.455080621234714
544,A,72.80262584790799
545,A,47.880628102017305
546,A,55.184052110910486
547,A,76.21703435980724
548,A,42.077839067749665
549,A,48.896168642172874
550,A,65.42718995513006
551,A,62.61744280167845
552,A,63.4809819798266
553,A,67.61006462890828
554,A,73.60306925224405
555,A,56.67391048176617
556,A,52.51193504133137
557,A,60.441462951016355
558,A,47.69841885022636
559,A,56.1421558028712
560,A,55.42309867935452
561,A,69.55893185912134
562,A,61.14502876833093
563,A,52.834831064010174
564,A,64.62257129376324
565,A,55.57626677790199
566,A,52.622205900302035
567,A,61.44931005597863
568,A,47.14638160877465
569,A,52.82483187797465
570,A,55.07942419490358
571,A,64.64608904322836
572,A,59.58335253032804
573,A,51.167883569091344
574,A,69.76116399461192
575,A,48.7695398580781
576,A,55.409987514652435
577,A,56.81609644302735
578,A,53.183672011192435
579,A,60.6935958568437
580,A,78.94970170208718
581,A,73.66380879977413
582,A,64.4335756770631
583,A,68.22658275718865
584,A,60.28833161703346
585,A,51.07083291587621
586,A,37.1714602283847
587,A,80.30414549926181
588,A,52.65294517020597
589,A,66.4612568601225
590,A,79.9533363002951
591,A,56.889702746538944
592,A,54.38124147090183
593,A,61.81366093203846
594,A,56.027018184799886
595,A,60.26634317283401
596,A,65.98707591133335
597,A,62.86834168893085
598,A,71.80773489198161
599,A,53.475390638923145
600,A,61.949392813338854
601,A,69.06241356450325
602,A,71.14629328290707
603,A,70.77562359168209
604,A,61.66597496041803
605,A,56.203115584392656
606,A,78.91237626079916
607,A,55.82357814226941
608,A,61.58222890444722
609,A,68.67616065626726
610,A,58.08761688914472
611,A,58.404107445151475
612,A,68.62546132204277
613,A,49.42510445001393
614,A,67.30583215658464
615,A,63.96781685394932
616,A,47.13899918304848
617,A,71.49568472372114
618,A,39.911391700311725
619,A,47.53178319173824
620,A,45.21804378298368
621,A,64.55429331455615
622,A,57.98510508093014
623,A,63.42031456956182
624,A,43.95757023091892
625,A,56.565818266827115
626,A,71.60810819527156
627,A,55.47225808065444
628,A,52.7879217051572
629,A,40.50855860884578
630,A,68.1373044282609
631,A,60.108656997713545
632,A,47.41948584185316
633,A,46.84592231985925
634,A,65.9985736251277
635,A,53.00554218729194
636,A,60.99902231203034
637,A,69.66810431059663
638,A,47.28798587580331
639,A,62.991099517102626
640,A,70.26277543939193
641,A,48.89501171904921
642,A,37.94431743538179
643,A,56.792561230478555
644,A,77.54556464168435
645,A,61.484019018839824
646,A,62.66868134941488
647,A,63.90471281427838
648,A,41.90333950225725
649,A,63.388310504224485
650,A,57.53433218652951
651,A,67.12502138195299
652,A,66.50505870180298
653,A,52.84321509928707
654,A,75.21805717106409
655,A,66.26799871075158
656,A,68.42933472127089
657,A,72.45978739568024
658,A,58.74314282249489
659,A,68.46547111154946
660,A,53.60723093332259
661,A,82.95095911927082
662,A,79.72607365146646
663,A,55.30737405930441
664,A,75.98752047623977
665,A,54.083961135713096
666,A,48.04256667280838
667,A,70.82689745924613
668,A,56.49719798044765
669,A,67.05101530094605
670,A,49.29449980744461
671,A,78.72024949226493
672,A,74.89811964218207
673,A,59.177124976270726
674,A,63.67171733299546
675,A,67.26113708488683
676,A,68.73476667192402
677,A,63.83946782109739
678,A,74.02768091760734
679,A,63.041736043075254
680,A,52.710685973889426
681,A,53.49920378015376
682,A,57.965786185131606
683,A,61.12792800060327
684,A,68.12152301588934
685,A,44.56981992039518
686,A,74.66640972250366
687,A,59.06470103071656
688,A,69.51068184169898
689,A,59.009328282482215
690,A,69.12265711590256
691,A,69.60732761853836
692,A,57.66819915241677
693,A,62.2214330057796
694,A,62.191186853863236
695,A,61.19999180040891
696,A,38.55654021133103
697,A,53.532370942154174
698,A,72.88420387356892
699,A,51.13559006635823
700,A,59.02255195761202
701,A,62.729857068418816
702,A,42.03661780933297
703,A,58.03840511276321
704,A,55.191877179774956
705,A,49.754629914479835
706,A,73.11912289138733
707,A,66.90257730709207
708,A,53.515134254669796
709,A,73.21629095176172
710,A,60.48557456599617
711,A,56.61087411135137
712,A,86.39502281808754
713,A,66.60391293414253
714,A,66.2670493892883
715,A,62.61831212331365
716,A,52.58505679153401
717,A,78.38533532313403
718,A,58.691409195295584
719,A,66.4333103921924
720,A,53.829102975743346
721,A,66.00147014530718
722,A,59.32206729263557
723,A,56.72909149307087
724,A,51.8309101037928
725,A,62.698060152454275
726,A,61.61396014046905
727,A,82.60986644582434
728,A,42.76106870542492
729,A,49.39415740465885
730,A,49.368181749633834
731,A,48.85756973371073
732,A,66.75568360681787
733,A,51.17187098457306
734,A,54.24957502553484
735,A,39.48272699172321
736,A,75.14094303024663
737,A,63.9624955228316
738,A,79.45750225399733
739,A,53.6250486843378
740,A,52.02916831112274
741,A,70.98277489745108
742,A,69.61694711477048
743,A,44.60176122055358
744,A,54.59338793422189
745,A,63.52392349717069
746,A,41.50623782288439
747,A,62.692058336969446
748,A,71.77552133107028
749,A,66.61990875028481
750,A,69.92020384272091
751,A,59.39092371695225
752,A,66.49202198052036
753,A,62.84883632451231
754,A,45.738723932306684
755,A,61.75487639513066
756,A,60.97944052706163
757,A,65.1157936642861
758,A,61.832951028531355
759,A,61.86458370205669
760,A,71.59128648685603
761,A,66.06972726110641
762,A,72.14673393403854
763,A,56.7571545839834
764,A,53.84181345754862
765,A,61.22552544834697
766,A,35.02642512367824
767,A,50.75534253316819
768,A,57.661304058188044
769,A,53.35953347786685
770,A,56.257687177291864
771,A,40.53409742540228
772,A,65.81194630415474
773,A,61.37708932002855
774,A,70.02196017197102
775,A,73.418315165291
776,A,59.91290012850234
777,A,71.69820330739519
778,A,52.61207971812682
779,A,56.67674068422462
780,A,46.525991354073334
781,A,64.76388428610184
782,A,63.25253093037237
783,A,65.44470796156506
784,A,78.94972555164051
785,A,48.662413115922895
786,A,62.105890583707584
787,A,59.63595541543097
788,A,72.92460310263819
789,A,60.48787678412164
790,A,77.17265721127755
791,A,61.72130968911423
792,A,71.69672478064003
793,A,83.71935980560349
794,A,63.39231780730758
795,A,58.88103858452321
796,A,60.31723618563395
797,A,64.34982186748142
798,A,71.07458900700351
799,A,63.09071853588673
800,A,59.91238901545766
801,A,45.80926234312234
802,A,62.646022551943574
803,A,70.75222153407587
804,A,64.73432049794214
805,A,63.184974215516775
806,A,63.719421851027064
807,A,52.75188815107759
808,A,55.179309128915506
809,A,40.973448040512324
810,A,77.44076206957553
811,A,40.541459625827976
812,A,62.050638723664946
813,A,55.00971364381826
814,A,59.63389360874033
815,A,59.106984573041444
816,A,64.70035102002456
817,A,64.97925196530743
818,A,74.97172463807212
819,A,70.46182840396912
820,A,60.590762525635384
821,A,48.77984792610691
822,A,61.23516637839427
823,A,50.11635088461921
824,A,52.82477834140675
825,A,44.38295616338566
826,A,50.11645282629162
827,A,53.243000173158975
828,A,47.71183419639875
829,A,79.28205638315065
830,A,58.86523128411353
831,A,62.78768532943515
832,A,59.91458887952767
833,A,53.77490370092862
834,A,52.64494222617441
835,A,50.8291589012653
836,A,78.21088324353458
837,A,64.33776097153424
838,A,50.045442936190355
839,A,61.86094239705116
840,A,61.65254147457747
841,A,61.70837523281959
842,A,58.40302872251482
843,A,47.89025337377121
844,A,66.36871953054141
845,A,74.85190555420021
846,A,63.593003707982156
847,A,60.473339002832866
848,A,46.12768972584813
849,A,42.618421632493295
850,A,66.8805819776016
851,A,51.7313728879236
852,A,65.573147540805
853,A,77.045168144486
854,A,56.56507252539816
855,A,73.32188843041594
856,A,45.44579728564102
857,A,47.11573205944642
858,A,32.84788766186033
859,A,65.50194115574263
860,A,47.94734876721311
861,A,54.40153094788026
862,A,64.80120325925652
863,A,56.749869587644916
864,A,40.305523028868095
865,A,50.79462829324794
866,A,68.2158621187911
867,A,56.623009341493805
868,A,61.49060663841373
869,A,57.62676784552831
870,A,73.93025518885159
871,A,62.537962540282706
872,A,64.59671088125131
873,A,69.84387834369556
874,A,48.771091231203485
875,A,61.58930591105277
876,A,64.49799523928259
877,A,63.025179284503366
878,A,65.1908184772698
879,A,70.50119086745143
880,A,46.01111791927467
881,A,51.97350685959859
882,A,50.980989615096405
883,A,51.339603480864014
884,A,62.59195053581261
885,A,52.79155809238521
886,A,56.83629509240413
887,A,61.04810360519404
888,A,59.721974508447644
889,A,64.42352291199245
890,A,73.60474488909645
891,A,64.52788976421505
892,A,50.11124113766297
893,A,64.95384964297753
894,A,55.71479142364063
895,A,73.89958654355287
896,A,59.83724450916441
897,A,65.44969004174796
898,A,42.12282662364274
899,A,56.08955626054709
900,A,61.60797262146364
901,A,58.500854115926124
902,A,55.844634663368865
903,A,64.45989478824991
904,A,64.23081271834016
905,A,58.503612593296765
906,A,68.45275167000366
907,A,62.83723235199623
908,A,54.919261349911196
909,A,65.50913488489483
910,A,62.20613955289601
911,A,59.134140043135865
912,A,57.97421756981545
913,A,61.01226086284885
914,A,61.75321882112974
915,A,58.45481472523593
916,A,64.0585858232084
917,A,75.06627912163322
918,A,49.87307595431574
919,A,65.47654145336
920,A,73.78390692887918
921,A,52.13005008692358
922,A,71.91154281278818
923,A,62.79214147454179
924,A,62.92798937305026
925,A,47.761498448488375
926,A,56.878744252261015
927,A,50.95265961967324
928,A,58.63117421291638
929,A,64.18073193919001
930,A,74.96949848440542
931,A,72.56604798070678
932,A,55.823802972286735
933,A,59.56196303107705
934,A,64.29617105773296
935,A,72.21775555798791
936,A,45.3596574555636
937,A,58.630250993845365
938,A,74.09312442171586
939,A,45.41416949603154
940,A,67.08941274676062
941,A,71.62711009954343
942,A,67.23105790874224
943,A,59.97891616514003
944,A,51.03711112337575
945,A,72.43313349718059
946,A,55.692637515962915
947,A,49.33385826779607
948,A,36.54357639668744
949,A,92.19972712256947
950,A,53.96342883961634
951,A,65.66714202454868
952,A,64.91465781141787
953,A,68.55712157321268
954,A,61.42418483591381
955,A,41.05257807153822
956,A,89.15203679135936
957,A,51.732267003317645
958,A,73.37182553781048
959,A,70.79402499662791
960,A,69.62986392353453
961,A,59.48893636260829
962,A,65.61668879870034
963,A,61.97934067249296
964,A,59.312538675979404
965,A,67.86752193362841
966,A,66.76745757959918
967,A,61.403561269253
968,A,68.2529048375588
969,A,80.25537933894954
970,A,72.26181859841249
971,A,72.29133072270506
972,A,55.45593125255642
973,A,63.987590816856546
974,A,55.93781080655073
975,A,43.15539203306311
976,A,59.89616161822377
977,A,42.084349614790185
978,A,62.34963723242904
979,A,62.10493404740253
980,A,64.55250432425265
981,A,72.99329378655622
982,A,49.19098143771953
983,A,53.803726240698516
984,A,59.22360133743287
985,A,60.16446039491301
986,A,46.85727642906594
987,A,69.774659342163
988,A,55.39032784524463
989,A,70.21550471949156
990,A,62.24560695989526
991,A,63.93954382736236
992,A,66.17669599088987
993,A,58.229460389990166
994,A,44.463016580147155
995,A,40.96771639511367
996,A,80.82904776675787
997,A,50.9567801454361
998,A,66.46517284567113
999,A,55.01438836460781
1000,B,74.18675763752907
1001,B,78.25525517279485
1002,B,58.89612327346289
1003,B,75.48239605321739
1004,B,97.77953646567423
1005,B,47.850490692196175
1006,B,60.69486575008335
1007,B,49.98875380073406
1008,B,77.8534081192011
1009,B,44.879587008900444
1010,B,73.89594223189805
1011,B,69.40023670916435
1012,B,69.60752128100734
1013,B,52.85644304562518
1014,B,56.99718100648195
1015,B,69.08506213998494
1016,B,51.289034475219665
1017,B,74.00156446479168
1018,B,69.65755387477112
1019,B,81.46460399183722
1020,B,74.8908543703518
1021,B,63.71192180349488
1022,B,48.90628056517711
1023,B,52.61678202429093
1024,B,50.45331578483813
1025,B,57.3662569306962
1026,B,75.4240072898925
1027,B,73.3113613934984
1028,B,55.83770755035793
1029,B,67.39918826570258
1030,B,77.08668326332955
1031,B,62.18455899374534
1032,B,59.238935933348614
1033,B,70.02169421397464
1034,B,56.650631017065706
1035,B,65.89745253933754
1036,B,62.70706042423738
1037,B,70.13820976752223
1038,B,65.3404008396527
1039,B,51.82046294911834
1040,B,76.18684952875603
1041,B,60.04269177467817
1042,B,44.39777684816506
1043,B,62.34461906800948
1044,B,42.82996519759166
1045,B,58.166092364805465
1046,B,56.69309583420602
1047,B,67.03928743289725
1048,B,55.1753137122088
1049,B,62.06009368744723
1050,B,70.0370037868064
1051,B,49.57472603045005
1052,B,68.59851144295787
1053,B,78.63296804744694
1054,B,56.27647848659757
1055,B,67.74032515958876
1056,B,61.59515095926192
1057,B,77.53986822976506
1058,B,71.78919546813121
1059,B,36.59306631726904
1060,B,81.01777078682733
1061,B,88.74628178291414
1062,B,55.67506374617174
1063,B,69.6837241253577
1064,B,66.41131668487813
1065,B,42.12090362032185
1066,B,76.87424037754496
1067,B,78.24652487535602
1068,B,57.828807643481106
1069,B,61.866515410393085
1070,B,63.649377134898934
1071,B,66.40635994383668
1072,B,88.56423727991424
1073,B,50.29359596524023
1074,B,52.74705563421581
1075,B,56.69181690726525
1076,B,72.66432245008941
1077,B,54.745916384459264
1078,B,60.71007819668613
1079,B,65.37722397243336
1080,B,59.128688665344875
1081,B,85.13145827060428
1082,B,84.90821094932818
1083,B,64.16584705923641
1084,B,77.501245282891
1085,B,58.34879830942749
1086,B,63.78128325391294
1087,B,57.979940028809864
1088,B,62.863298236821315
1089,B,41.018026777798646
1090,B,60.43975149421229
1091,B,58.855708311448936
1092,B,51.0970388872623
1093,B,67.89856866650616
1094,B,72.2254229129982
1095,B,44.63580475307097
1096,B,65.77701467334573
1097,B,63.93004382514499
1098,B,32.32142665392985
1099,B,56.2466227062803
1100,B,66.81796100797737
1101,B,62.875258872091955
1102,B,42.79138403271004
1103,B,75.25862290704623
1104,B,68.80128249870832
1105,B,58.371227242018236
1106,B,66.14090307491101
1107,B,63.12791820695851
1108,B,78.0400121336307
1109,B,55.388477586530385
1110,B,85.49583196450011
1111,B,76.16416851426911
1112,B,46.38438391368143
1113,B,45.52581775304221
1114,B,71.09406854805707
1115,B,54.01009820943528
1116,B,65.8356596631697
1117,B,77.44642024710687
1118,B,80.97861262644017
1119,B,59.936290929813104
1120,B,64.68152836061267
1121,B,62.394584667294495
1122,B,56.64439015904851
1123,B,54.08510275224359
1124,B,90.24347999241895
1125,B,58.25048140271112
1126,B,49.8527615006229
1127,B,61.875765838340435
1128,B,61.18492237174287
1129,B,60.023552955942534
1130,B,68.85782159356302
1131,B,82.43958018826442
1132,B,81.76049855968314
1133,B,54.960991729704794
1134,B,48.967392138692205
1135,B,80.5395694173706
1136,B,61.85499537139304
1137,B,66.6278336841474
1138,B,61.62975810554035
1139,B,64.99934148669239
1140,B,86.85114754807806
1141,B,77.08059609948472
1142,B,51.78083076787022
1143,B,66.59490191871127
1144,B,62.13894438301703
1145,B,48.191677800818056
1146,B,57.88258644624051
1147,B,73.61956564273527
1148,B,75.7550740054387
1149,B,71.92583168194045
1150,B,62.98238853195519
1151,B,95.74321194085147
1152,B,70.42054526400759
1153,B,81.22911566311649
1154,B,71.68899778153458
1155,B,59.061948602337196
1156,B,59.01686944955871
1157,B,52.42992727190523
1158,B,44.502069190982176
1159,B,74.80145555495696
1160,B,68.51416002683416
1161,B,40.030817238469425
1162,B,74.33908424396994
1163,B,73.3252733444108
1164,B,70.21031106222455
1165,B,55.19535585724155
1166,B,44.66902803584624
1167,B,57.54244572391079
1168,B,76.47654834450665
1169,B,71.26513498773173
1170,B,66.80895918242848
1171,B,61.29246625662501
1172,B,48.769384415739225
1173,B,47.93893632280813
1174,B,63.03823122015952
1175,B,62.957293068146726
1176,B,51.514182569678674
1177,B,38.61425501695792
1178,B,72.43178626973751
1179,B,80.08547080896248
1180,B,62.8642345357776
1181,B,70.46865347965168
1182,B,70.06333860214927
1183,B,61.15809953721652
1184,B,78.1751261926124
1185,B,62.54684417603694
1186,B,73.05582075482091
1187,B,60.44357083380995
1188,B,40.95951536717524
1189,B,64.55211748913206
1190,B,72.35401002781346
1191,B,76.83576382862738
1192,B,53.286534367170546
1193,B,60.453982867208786
1194,B,56.30271736937179
1195,B,65.84405897232531
1196,B,62.21927153083135
1197,B,53.76833602057764
1198,B,57.64366520022999
1199,B,65.78980871214783
1200,B,57.29702350891178
1201,B,79.6989559404428
1202,B,49.8869667812209
1203,B,61.15932305288871
1204,B,71.41079114190354
1205,B,48.67183596809029
1206,B,57.13824839256483
1207,B,66.47317890476292
1208,B,59.55623318897118
1209,B,60.27872776721815
1210,B,77.62203356008712
1211,B,77.49924239222003
1212,B,64.14098190683096
1213,B,56.5705077212547
1214,B,66.13078080003717
1215,B,70.64431286039765
1216,B,49.5788749325326
1217,B,72.41997268070146
1218,B,66.7171505324267
1219,B,40.95701541566979
1220,B,83.06614508659206
1221,B,74.74252445345505
1222,B,63.52573110118165
1223,B,61.95250197270133
1224,B,79.02072121682761
1225,B,55.04293877624491
1226,B,75.41172047808841
1227,B,44.18441787899358
1228,B,94.29102649073342
1229,B,57.681398738267156
1230,B,59.72598772444707
1231,B,73.59104904427362
1232,B,69.38105913761248
1233,B,69.37887953985873
1234,B,48.56421502289112
1235,B,80.33313320707407
1236,B,83.19165573404997
1237,B,69.47141676654456
1238,B,79.4084234743264
1239,B,73.91490766119534
1240,B,50.59422671220325
1241,B,91.1243990262783
1242,B,53.13911410950682
1243,B,59.666323667407
1244,B,67.86435732601649
1245,B,58.17126749415256
1246,B,72.03515055347901
1247,B,55.80119256097584
1248,B,63.62019398709349
1249,B,52.547474587971166
1250,B,64.77975453678413
1251,B,78.59020468054631
1252,B,50.1970350676724
1253,B,66.15283455428498
1254,B,65.77479427013489
1255,B,61.10806033021238
1256,B,58.897837386076375
1257,B,62.94007470391114
1258,B,59.22016189483995
1259,B,60.71363608619129
1260,B,80.97381997691072
1261,B,56.09555543842155
1262,B,73.0979750890758
1263,B,48.93874632823851
1264,B,82.12813877338239
1265,B,39.535267021227455
1266,B,85.69455208307353
1267,B,80.82382958320565
1268,B,79.33091998274838
1269,B,46.56846866728734
1270,B,77.64062023821808
1271,B,70.99815833363121
1272,B,64.0258137279072
1273,B,48.80085357193468
1274,B,70.83498543338408
1275,B,65.46316794606388
1276,B,96.19751576944554
1277,B,73.4068947679075
1278,B,66.8047185896947
1279,B,61.387932806643846
1280,B,42.45552438403165
1281,B,70.80697480682906
1282,B,56.6818776307676
1283,B,56.935168925473256
1284,B,79.03139321343284
1285,B,66.76081312222745
1286,B,68.05032844729372
1287,B,64.5019618675583
1288,B,62.190997221728054
1289,B,62.55982691138608
1290,B,59.24438692037312
1291,B,66.1319884572663
1292,B,57.16265529839973
1293,B,73.56607381544954
1294,B,61.454569244524826
1295,B,68.25556316109027
1296,B,66.06206914800981
1297,B,52.442647976310624
1298,B,67.53804174160886
1299,B,62.27339704414639
1300,B,60.021877528182436
1301,B,79.6680607930105
1302,B,36.92854182221703
1303,B,69.04579366022516
1304,B,42.739212928195386
1305,B,76.87897534838724
1306,B,61.97126116988275
1307,B,76.22951513494067
1308,B,64.8999284969054
1309,B,56.47129504753654
1310,B,73.14069304519381
1311,B,63.63952706774473
1312,B,69.09434025999701
1313,B,65.81469082070014
1314,B,56.93689795524742
1315,B,74.94811256339642
1316,B,59.313710800311384
1317,B,52.64623461704623
1318,B,57.50985262522515
1319,B,66.76126048968385
1320,B,64.78167976239516
1321,B,54.77450357978577
1322,B,46.82424445074585
1323,B,75.53051493175583
1324,B,46.92100786936002
1325,B,81.76511896698663
1326,B,61.494794264119854
1327,B,83.05296703627332
1328,B,59.53589483427116
1329,B,65.55879199041786
1330,B,69.11871251584094
1331,B,72.9649620936312
1332,B,75.59416446379848
1333,B,49.50153507049913
1334,B,74.20982724600353
1335,B,57.23732497426099
1336,B,67.80335195015707
1337,B,83.58761617260261
1338,B,69.5147501082186
1339,B,87.9848787935758
1340,B,72.3977157980024
1341,B,81.77041624535988
1342,B,57.53787514942661
1343,B,57.3973627504815
1344,B,79.40806793367615
1345,B,72.49088204194528
1346,B,46.49227640988309
1347,B,67.49150239332424
1348,B,68.11710620690214
1349,B,49.62938075816825
1350,B,68.44860511385224
1351,B,61.298316432043364
1352,B,53.32937247796925
1353,B,39.836611178564524
1354,B,57.99823848833902
1355,B,56.213178090629135
1356,B,78.1390814870428
1357,B,69.58018161115851
1358,B,53.235014705138894
1359,B,83.23271884703931
1360,B,63.35228687086771
1361,B,62.095708447050235
1362,B,76.05077404405368
1363,B,52.4685643693516
1364,B,64.92194780682799
1365,B,53.21559860161747
1366,B,74.48065945901537
1367,B,68.04255711492499
1368,B,63.073634558534295
1369,B,63.21570338574564
1370,B,85.40339107210235
1371,B,60.845638869213545
1372,B,55.3595002674445
1373,B,62.9686771299564
1374,B,82.53250077097344
1375,B,67.56742898695133
1376,B,77.28305750041577
1377,B,64.36575818831595
1378,B,63.46888342190437
1379,B,67.26375564794179
1380,B,33.01500108109533
1381,B,89.28428314819278
1382,B,65.70631034600676
1383,B,61.102082428245744
1384,B,83.22075139277456
1385,B,65.60170385282589
1386,B,66.26670313682865
1387,B,86.52638316522408
1388,B,68.47119794448022
1389,B,59.22331291077909
1390,B,50.68872528502244
1391,B,80.35346724532539
1392,B,68.43091573414745
1393,B,53.301242158711354
1394,B,57.22078651951802
1395,B,64.10532237842584
1396,B,54.610311207677356
1397,B,50.589981366466894
1398,B,70.26349389762015
1399,B,76.83754378813647
1400,B,58.245238552567216
1401,B,80.6847957116095
1402,B,94.64598713996685
1403,B,71.62562560206308
1404,B,70.82945657704018
1405,B,76.71849376068872
1406,B,63.25669967624624
1407,B,68.15273651054149
1408,B,43.00654139043745
1409,B,47.038583755824774
1410,B,60.30478535888572
1411,B,48.06673144107216
1412,B,76.21125682313735
1413,B,58.3635139038437
1414,B,76.50786965368981
1415,B,75.35031497404633
1416,B,96.48686780543557
1417,B,64.73727799965654
1418,B,73.31982911524575
1419,B,75.65813090929714
1420,B,46.67558014578769
1421,B,52.685727713401135
1422,B,66.38924537149416
1423,B,51.297153822694476
1424,B,62.7812480781222
1425,B,57.65884299254761
1426,B,62.542322984582
1427,B,65.99937040581845
1428,B,70.07568050626968
1429,B,61.44600444666977
1430,B,55.23023937502219
1431,B,50.01357960249185
1432,B,63.8814372320939
1433,B,46.01616892847514
1434,B,63.60478691041124
1435,B,67.9544542839583
1436,B,79.00189662662831
1437,B,58.040433825863914
1438,B,59.003958402107614
1439,B,49.65464723128625
1440,B,77.88046412203924
1441,B,56.248131403669355
1442,B,64.97654616134184
1443,B,73.1825734373727
1444,B,57.101057107166724
1445,B,85.64652513234542
1446,B,70.40924948830353
1447,B,59.296264099030964
1448,B,70.18284355015192
1449,B,65.55481991895178
1450,B,65.35488636554541
1451,B,74.52615568355797
1452,B,72.45377407198009
1453,B,41.97396015409826
1454,B,68.65615458490241
1455,B,53.42502342154598
1456,B,45.15733015119915
1457,B,67.45586139839637
1458,B,73.58036976898137
1459,B,69.27195309807834
1460,B,67.3564564063189
1461,B,80.88575878864975
1462,B,60.622525131270294
1463,B,71.79549310813417
1464,B,72.87032567955431
1465,B,96.81481234520636
1466,B,87.7489929674299
1467,B,75.44395351673349
1468,B,78.80535761938448
1469,B,77.69372251460766
1470,B,80.22948796792343
1471,B,64.43143799999704
1472,B,51.230093465415194
1473,B,73.74197026343806
1474,B,71.25411794570655
1475,B,67.61524066912233
1476,B,52.258993522848456
1477,B,50.30969553518771
1478,B,77.68728108495631
1479,B,55.93003099199221
1480,B,64.36198958080142
1481,B,68.78624623814396
1482,B,76.1062785244694
1483,B,62.66213474320985
1484,B,60.23742412469021
1485,B,64.62346685140179
1486,B,51.23653074721093
1487,B,56.909389905229176
1488,B,38.7837727035577
1489,B,59.811972093688134
1490,B,65.661593310172
1491,B,66.71421121849062
1492,B,73.05778973864204
1493,B,81.37761927715204
1494,B,48.36805101756654
1495,B,63.30635849504453
1496,B,37.66171538130521
1497,B,75.06426422923032
1498,B,76.10639582066187
1499,B,59.14950787474465
1500,B,59.83454462232891
1501,B,58.7199270529219
1502,B,63.094953476684964
1503,B,66.50401028529211
1504,B,64.40377335368143
1505,B,55.35425949614769
1506,B,57.234639510168954
1507,B,63.05553285554457
1508,B,65.47190302166315
1509,B,59.27594262137663
1510,B,56.69087915449541
1511,B,50.9020165173984
1512,B,47.112564967745286
1513,B,74.11764065691143
1514,B,70.44746740543366
1515,B,64.55312687356268
1516,B,61.73926007728494
1517,B,46.65570621111445
1518,B,61.55396244628995
1519,B,78.39978960316054
1520,B,84.59968581595479
1521,B,24.34613800942428
1522,B,64.29048986879761
1523,B,61.65545761140386
1524,B,48.07669947721587
1525,B,52.866089780725574
1526,B,83.71160392013073
1527,B,70.1885900385327
1528,B,61.89254380499667
1529,B,71.01947681286805
1530,B,63.57938283374645
1531,B,77.8710731596675
1532,B,57.25173242620349
1533,B,64.70013236231675
1534,B,68.5242301463881
1535,B,65.83842408319099
1536,B,80.47450708173126
1537,B,72.17778112956728
1538,B,83.24505372249037
1539,B,54.94917780103742
1540,B,70.72631887951576
1541,B,71.8348717325561
1542,B,65.07421260309296
1543,B,52.97788453687254
1544,B,81.63346219626136
1545,B,71.46097188691398
1546,B,70.11647653025732
1547,B,70.9010187047628
1548,B,62.56956016286374
1549,B,62.73503548309057
1550,B,72.72730850034205
1551,B,34.107323477782934
1552,B,74.16807184561893
1553,B,68.57317561879206
1554,B,69.77466331935815
1555,B,74.8425795947345
1556,B,66.83027049254548
1557,B,54.24356411603816
1558,B,77.984386802958
1559,B,64.3084494893718
1560,B,45.359513080812306
1561,B,56.013550764185595
1562,B,71.12781154388053
1563,B,98.04035784266023
1564,B,62.23927937407017
1565,B,79.15550345512071
1566,B,67.34333048525433
1567,B,82.42175711218354
1568,B,57.4228611641983
1569,B,67.31994384758772
1570,B,101.35118939802413
1571,B,58.84724399619774
1572,B,73.39071935048958
1573,B,67.49300637146442
1574,B,64.69762829579568
1575,B,41.195606994232996
1576,B,74.1972625254564
1577,B,76.67068945534461
1578,B,88.45760568771078
1579,B,66.39098546069123
1580,B,51.48567720386288
1581,B,86.59369852665377
1582,B,66.41178119936713
1583,B,72.83793371872528
1584,B,42.35994223817791
1585,B,36.9889317120204
1586,B,72.8787898933027
1587,B,76.6801533798566
1588,B,52.602033806656294
1589,B,64.21831546777459
1590,B,93.9552020470434
1591,B,60.55029743569333
1592,B,67.81004785454684
1593,B,80.15993724684338
1594,B,38.39331106437502
1595,B,73.51904785143259
1596,B,60.95227256807448
1597,B,68.81800111628054
1598,B,80.90829872486205
1599,B,49.220490722727924
1600,B,74.24752428762295
1601,B,62.37829741999955
1602,B,71.27233433526004
1603,B,42.863486811514484
1604,B,57.72181090983159
1605,B,72.14133992656532
1606,B,72.0305313606627
1607,B,58.89323294456511
1608,B,63.863551627571084
1609,B,74.70156138999654
1610,B,83.11081616908852
1611,B,81.09797008078161
1612,B,87.15457637956938
1613,B,78.0018990139548
1614,B,70.40014426425715
1615,B,90.57159378829702
1616,B,65.519927063223
1617,B,71.98655766890897
1618,B,72.15973399268893
1619,B,57.03919812775903
1620,B,62.9619700896848
1621,B,52.016709577101864
1622,B,47.53366681303595
1623,B,59.369241228349125
1624,B,82.72605012836047
1625,B,54.59755833341308
1626,B,57.26772055568041
1627,B,62.44744890563828
1628,B,54.63903085000183
1629,B,70.70279051463666
1630,B,82.08470174614911
1631,B,62.476673888663086
1632,B,75.73775185862495
1633,B,72.88766471452777
1634,B,53.949074612772804
1635,B,68.61020457571674
1636,B,62.05484454550285
1637,B,81.88821562129526
1638,B,80.07625759691685
1639,B,78.32108434032946
1640,B,86.78916004322024
1641,B,50.205685081075714
1642,B,64.13155815211138
1643,B,57.11984414527708
1644,B,50.61831422276447
1645,B,74.61216989525455
1646,B,77.54735594314695
1647,B,69.50395026492686
1648,B,89.04870517240879
1649,B,75.34895766344792
1650,B,66.1428260039303
1651,B,60.0383756744854
1652,B,73.39737047599615
1653,B,69.19845441664302
1654,B,65.72094341718828
1655,B,47.48889265201951
1656,B,78.39663528541348
1657,B,59.255105567890666
1658,B,43.3584273699517
1659,B,61.54463839723352
1660,B,63.961376574293986
1661,B,82.05762809983564
1662,B,69.55140153481203
1663,B,75.48720113240026
1664,B,74.78248760009518
1665,B,48.58341870105767
1666,B,71.42163662823955
1667,B,65.17701107063183
1668,B,67.60147916443826
1669,B,74.51192368104172
1670,B,57.37347669989244
1671,B,81.72761589518868
1672,B,56.74804295658508
1673,B,78.50792732121762
1674,B,57.08754936257914
1675,B,61.72986357390971
1676,B,36.6536456174925
1677,B,75.7940568440555
1678,B,63.77686556170477
1679,B,57.53296536195049
1680,B,82.1119572167613
1681,B,64.97216351090148
1682,B,71.7030385783529
1683,B,64.82594942589702
1684,B,51.05596426276654
1685,B,47.98044583218484
1686,B,58.414304879455635
1687,B,53.35617106853022
1688,B,68.37988291101239
1689,B,59.06148399822136
1690,B,49.73482727271757
1691,B,73.55715438049715
1692,B,76.69304575864582
1693,B,61.41928640949688
1694,B,79.56417857469617
1695,B,60.109333160377375
1696,B,56.26451289342555
1697,B,45.02206083842192
1698,B,59.647575125684064
1699,B,75.00365442781509
1700,B,64.31731328792195
1701,B,90.2184992362728
1702,B,55.535581467313946
1703,B,57.48774823930465
1704,B,64.80019880918151
1705,B,82.37364475804242
1706,B,48.34600396267603
1707,B,76.39126712122342
1708,B,71.53516195499323
1709,B,48.356068280449186
1710,B,54.958344906078366
1711,B,82.05449122923622
1712,B,83.06084661681977
1713,B,70.76930383448736
1714,B,67.06794935062254
1715,B,72.75771282787568
1716,B,60.16332411738751
1717,B,66.05662387292112
1718,B,96.97242178421956
1719,B,46.990582116159814
1720,B,42.112375031451165
1721,B,46.12198600242064
1722,B,72.11014135854116
1723,B,67.16950592888404
1724,B,73.09064651117177
1725,B,69.99628752569578
1726,B,82.88264373828767
1727,B,68.99416842100905
1728,B,85.46407110674022
1729,B,71.95535006250425
1730,B,57.31400810726648
1731,B,63.16523437042167
1732,B,50.43909382774169
1733,B,71.14821417055512
1734,B,66.75122577473151
1735,B,46.32690701403149
1736,B,66.4848374015398
1737,B,60.31729081724133
1738,B,71.1785673650191
1739,B,68.61742357026753
1740,B,83.77524207776324
1741,B,74.56780184509938
1742,B,43.07119725001962
1743,B,53.54626913894401
1744,B,65.24770369601197
1745,B,50.46008763655661
1746,B,63.53804902429699
1747,B,52.31083548353411
1748,B,65.22646724954592
1749,B,78.44953014005912
1750,B,77.3706479408276
1751,B,55.39585837783504
1752,B,77.0926329174922
1753,B,63.09073496402161
1754,B,68.81946164112496
1755,B,53.99311596152608
1756,B,70.30176727988722
1757,B,71.03299670643702
1758,B,73.21657653266053
1759,B,50.61604930641023
1760,B,44.96308883584014
1761,B,69.56781605873788
1762,B,53.65705005743877
1763,B,76.04571864501732
1764,B,63.516154225338056
1765,B,68.14392686096453
1766,B,70.73966318037229
1767,B,53.68402043462275
1768,B,56.31119812594155
1769,B,58.7747388958392
1770,B,57.65412990909534
1771,B,54.7699489731006
1772,B,62.46164736223037
1773,B,76.59570371946292
1774,B,73.70591817977215
1775,B,71.64306752490613
1776,B,74.28936833644241
1777,B,62.42934077605942
1778,B,59.83792630848845
1779,B,64.92124571716003
1780,B,47.08170128910382
1781,B,58.6123231871598
1782,B,80.05138584239263
1783,B,71.32498512273084
1784,B,83.58864889155797
1785,B,67.98505438031931
1786,B,58.19614697517198
1787,B,62.89408825766691
1788,B,77.20207230979632
1789,B,73.94648411998082
1790,B,78.00299243717691
1791,B,55.951207041558405
1792,B,70.59357830103787
1793,B,73.68848922065297
1794,B,69.68412244391143
1795,B,77.41766177487602
1796,B,66.52459640003586
1797,B,80.7467073740377
1798,B,57.05222725648962
1799,B,62.87930291421376
1800,B,51.996251211502674
1801,B,72.06821156783721
1802,B,67.7671424473582
1803,B,67.59307034655144
1804,B,56.04847376219787
1805,B,59.96687087612471
1806,B,66.727123788618
1807,B,72.041737846004
1808,B,77.61946661437536
1809,B,63.58666121597897
1810,B,72.55225012125767
1811,B,84.12292808477795
1812,B,50.9396944573988
1813,B,78.1472983061327
1814,B,79.1485774731483
1815,B,73.05799793297463
1816,B,56.74128058529827
1817,B,63.60219485281771
1818,B,70.0345899137885
1819,B,54.723497473582825
1820,B,52.45339279233217
1821,B,69.16738877081079
1822,B,75.24300530170282
1823,B,77.39588506977385
1824,B,73.83416378347815
1825,B,57.869348686940484
1826,B,74.03659673545191
1827,B,62.419856024007125
1828,B,68.51470234673532
1829,B,59.1557077019547
1830,B,51.64324596196478
1831,B,52.60126466449303
1832,B,72.25630690960497
1833,B,54.06228101862168
1834,B,64.41009261234578
1835,B,63.20019458456063
1836,B,71.80661945278412
1837,B,76.65994023133273
1838,B,64.6963393057118
1839,B,66.50528151970552
1840,B,93.15862768235576
1841,B,57.236740401560745
1842,B,65.93859936699948
1843,B,44.167903807692
1844,B,66.06427935919378
1845,B,51.07832975054077
1846,B,65.33308693727409
1847,B,67.30600047304834
1848,B,69.85678108661999
1849,B,54.12705598983209
1850,B,73.56128603008413
1851,B,65.20282026563852
1852,B,80.59490254633153
1853,B,85.96704939474809
1854,B,20.369318735794714
1855,B,55.8699415203413
1856,B,52.9839878925704
1857,B,41.77390558308622
1858,B,78.21880837663524
1859,B,79.30901767422228
1860,B,67.24594258835536
1861,B,74.68705666440647
1862,B,46.79537242619067
1863,B,54.93975991653768
1864,B,68.1897749624755
1865,B,49.81355589610688
1866,B,64.45849725205451
1867,B,61.251740070784095
1868,B,53.58154122530473
1869,B,67.99724312715715
1870,B,69.42077958566334
1871,B,60.94869563393811
1872,B,83.45000124286872
1873,B,79.57480887448085
1874,B,89.96832688725586
1875,B,85.29902222794902
1876,B,74.21385503727065
1877,B,56.47867297830095
1878,B,81.49635695580899
1879,B,51.59972444923904
1880,B,58.516611442244475
1881,B,50.0632955710125
1882,B,30.462897739591497
1883,B,67.23777523618541
1884,B,51.915016732890834
1885,B,49.756574430473606
1886,B,74.76642061201322
1887,B,39.74721417243597
1888,B,57.46469997354451
1889,B,80.57609691939503
1890,B,75.6496630944719
1891,B,64.08098121325222
1892,B,70.7849618510823
1893,B,66.40419172409413
1894,B,62.90720529838155
1895,B,63.24204710854394
1896,B,78.26486881967313
1897,B,40.740978535144016
1898,B,49.67863718805185
1899,B,68.0188948121824
1900,B,48.13805952632053
1901,B,57.68675097094893
1902,B,59.32865218310201
1903,B,74.63197682120034
1904,B,67.2941334597796
1905,B,58.521598872466
1906,B,61.261235575885934
1907,B,59.83599633062734
1908,B,72.28499976919986
1909,B,73.194640432473
1910,B,56.04757620682567
1911,B,72.73240386434476
1912,B,58.588254403206946
1913,B,42.62107661007214
1914,B,57.87764672169662
1915,B,64.66257000697627
1916,B,72.60911339934292
1917,B,76.1198935327795
1918,B,72.56698337906138
1919,B,61.552930538329896
1920,B,76.38735197019183
1921,B,42.163983448209834
1922,B,63.26491643619651
1923,B,61.5424088440312
1924,B,69.72765939998793
1925,B,73.56586834902463
1926,B,55.597238880308545
1927,B,78.4376522607237
1928,B,69.51040811572504
1929,B,71.80849284896401
1930,B,50.66638579505489
1931,B,56.97440326388105
1932,B,67.11713907380471
1933,B,59.38874828929393
1934,B,63.21321573007684
1935,B,50.725332779341066
1936,B,45.73103665238251
1937,B,50.90284173445947
1938,B,79.71505887736895
1939,B,66.43044270512051
1940,B,60.71846442248784
1941,B,61.287175996408635
1942,B,52.56516119509354
1943,B,45.87475466714096
1944,B,62.85992517857895
1945,B,90.82741113363338
1946,B,64.189387851671
1947,B,56.31296758730366
1948,B,74.70055996088584
1949,B,81.01291823743907
1950,B,62.04500413017032
1951,B,37.57139027063643
1952,B,80.15004196394109
1953,B,65.78052696093602
1954,B,70.10909481256748
1955,B,65.27947499425372
1956,B,70.11518177131698
1957,B,60.55302495795455
1958,B,69.70205532264282
1959,B,82.17788403752694
1960,B,76.92440104618899
1961,B,64.92084051584983
1962,B,62.171502003228625
1963,B,50.27423871232156
1964,B,74.39304537902483
1965,B,75.79485870695561
1966,B,68.64759475796274
1967,B,61.455451501711515
1968,B,69.58160383392794
1969,B,74.1635779074812
1970,B,56.31559238147507
1971,B,53.615233997698084
1972,B,67.43305092340663
1973,B,76.02518340609373
1974,B,51.76326167491847
1975,B,60.677436047753524
1976,B,56.15705235463247
1977,B,41.96465202324983
1978,B,68.91507128356147
1979,B,63.962717134095264
1980,B,64.97005909879104
1981,B,61.4382987191532
1982,B,56.28720921363722
1983,B,71.14644323617765
1984,B,98.01496762753129
1985,B,61.77652176468128
1986,B,70.25637096616681
1987,B,61.207193082050615
1988,B,58.11823044052035
1989,B,59.89910632807472
1990,B,76.14172038878114
1991,B,73.5912755363601
1992,B,81.27931689599356
1993,B,69.86470150963095
1994,B,59.78297107616966
1995,B,47.4954527010175
1996,B,65.39165689265052
1997,B,65.16877502117616
1998,B,60.605766740401634
1999,B,66.06341547112305
